pipline_cpu_1/testBench.vcd
$date
	Fri Nov 18 18:16:09 2022
$end
$version
	Icarus Verilog
$end
$timescale
	1ps
$end
$scope module Testbench $end
$var reg 1 ! clk $end
$var reg 1 " rst $end
$var integer 32 # cnt [31:0] $end
$scope module mips $end
$var wire 1 ! clk $end
$var wire 1 " rst $end
$var wire 6 $ op [5:0] $end
$var wire 1 % if_branch $end
$var wire 6 & func [5:0] $end
$var wire 1 ' RegWr $end
$var wire 1 ( RegDst $end
$var wire 4 ) NPCop [3:0] $end
$var wire 1 * MemtoReg $end
$var wire 1 + MemWr $end
$var wire 1 , ExtOp $end
$var wire 4 - ALUctr [3:0] $end
$var wire 1 . ALUSrc $end
$scope module controller $end
$var wire 6 / op [5:0] $end
$var wire 6 0 func [5:0] $end
$var parameter 4 1 ADD $end
$var parameter 4 2 ADD4 $end
$var parameter 4 3 ADDI $end
$var parameter 4 4 ADDIU $end
$var parameter 4 5 AND $end
$var parameter 4 6 BEQ $end
$var parameter 4 7 BGEZ $end
$var parameter 4 8 BGTZ $end
$var parameter 4 9 BLEZ $end
$var parameter 4 : BLTZ $end
$var parameter 4 ; BNE $end
$var parameter 4 < JAL $end
$var parameter 4 = JALR $end
$var parameter 4 > JR $end
$var parameter 4 ? JUMP $end
$var parameter 4 @ LUI $end
$var parameter 4 A OR $end
$var parameter 4 B ORI $end
$var parameter 4 C SLL $end
$var parameter 4 D SLT $end
$var parameter 4 E SUB $end
$var parameter 4 F XOR $end
$var reg 1 . ALUSrc $end
$var reg 4 G ALUctr [3:0] $end
$var reg 1 , ExtOp $end
$var reg 1 + MemWr $end
$var reg 1 * MemtoReg $end
$var reg 4 H NPCop [3:0] $end
$var reg 1 ( RegDst $end
$var reg 1 ' RegWr $end
$var reg 1 % if_branch $end
$upscope $end
$scope module datapath $end
$var wire 1 . ALUSrc $end
$var wire 4 I ALUctr [3:0] $end
$var wire 1 , ExtOp $end
$var wire 1 + MemWr $end
$var wire 1 * MemtoReg $end
$var wire 4 J NPCop [3:0] $end
$var wire 1 ( RegDst $end
$var wire 1 ' RegWr $end
$var wire 1 ! clk $end
$var wire 1 % if_branch $end
$var wire 1 " rst $end
$var wire 1 K zero_W $end
$var wire 1 L zero_M $end
$var wire 1 M zero $end
$var wire 32 N wd [31:0] $end
$var wire 26 O target_W [25:0] $end
$var wire 26 P target_M [25:0] $end
$var wire 26 Q target_E [25:0] $end
$var wire 26 R target [25:0] $end
$var wire 5 S shamt_E [4:0] $end
$var wire 5 T shamt [4:0] $end
$var wire 32 U rt_data_M [31:0] $end
$var wire 32 V rt_data_E [31:0] $end
$var wire 32 W rt_data [31:0] $end
$var wire 32 X rs_data_E [31:0] $end
$var wire 32 Y rs_data [31:0] $end
$var wire 32 Z result_W [31:0] $end
$var wire 32 [ result_M [31:0] $end
$var wire 32 \ result [31:0] $end
$var wire 6 ] op [5:0] $end
$var wire 32 ^ instruction_F [31:0] $end
$var wire 32 _ instruction_D [31:0] $end
$var wire 16 ` imm16_E [15:0] $end
$var wire 16 a imm16 [15:0] $end
$var wire 1 b if_branch_E $end
$var wire 6 c func [5:0] $end
$var wire 32 d ext_result_W [31:0] $end
$var wire 32 e ext_result_M [31:0] $end
$var wire 32 f ext_result [31:0] $end
$var wire 32 g dout_W [31:0] $end
$var wire 32 h dout [31:0] $end
$var wire 32 i data [31:0] $end
$var wire 5 j Rt_W [4:0] $end
$var wire 5 k Rt_M [4:0] $end
$var wire 5 l Rt_E [4:0] $end
$var wire 5 m Rt [4:0] $end
$var wire 5 n Rs_E [4:0] $end
$var wire 5 o Rs [4:0] $end
$var wire 1 p RegWr_W $end
$var wire 1 q RegWr_M $end
$var wire 1 r RegWr_E $end
$var wire 1 s RegDst_W $end
$var wire 1 t RegDst_M $end
$var wire 1 u RegDst_E $end
$var wire 5 v Rd_W [4:0] $end
$var wire 5 w Rd_M [4:0] $end
$var wire 5 x Rd_E [4:0] $end
$var wire 5 y Rd [4:0] $end
$var wire 32 z PC_plus_4 [31:0] $end
$var wire 32 { PC_W [31:0] $end
$var wire 32 | PC_M [31:0] $end
$var wire 32 } PC_E [31:0] $end
$var wire 32 ~ PC_D [31:0] $end
$var wire 32 !" PC [31:0] $end
$var wire 4 "" NPCop_W [3:0] $end
$var wire 4 #" NPCop_M [3:0] $end
$var wire 4 $" NPCop_E [3:0] $end
$var wire 32 %" NPC [31:0] $end
$var wire 1 &" MemtoReg_W $end
$var wire 1 '" MemtoReg_M $end
$var wire 1 (" MemtoReg_E $end
$var wire 1 )" MemWr_M $end
$var wire 1 *" MemWr_E $end
$var wire 1 +" ExtOp_E $end
$var wire 4 ," ALUctr_E [3:0] $end
$var wire 1 -" ALUSrc_E $end
$scope module Ex_Mem $end
$var wire 1 ! clk $end
$var wire 1 M zero $end
$var wire 26 ." target_E [25:0] $end
$var wire 32 /" rt_data [31:0] $end
$var wire 32 0" result [31:0] $end
$var wire 32 1" ext_result [31:0] $end
$var wire 5 2" Rt_E [4:0] $end
$var wire 1 r RegWr_E $end
$var wire 1 u RegDst_E $end
$var wire 5 3" Rd_E [4:0] $end
$var wire 32 4" PC_E [31:0] $end
$var wire 4 5" NPCop_E [3:0] $end
$var wire 1 (" MemtoReg_E $end
$var wire 1 *" MemWr_E $end
$var reg 1 )" MemWr_M $end
$var reg 1 '" MemtoReg_M $end
$var reg 4 6" NPCop_M [3:0] $end
$var reg 32 7" PC_M [31:0] $end
$var reg 5 8" Rd_M [4:0] $end
$var reg 1 t RegDst_M $end
$var reg 1 q RegWr_M $end
$var reg 5 9" Rt_M [4:0] $end
$var reg 32 :" ext_result_M [31:0] $end
$var reg 32 ;" result_M [31:0] $end
$var reg 32 <" rt_data_M [31:0] $end
$var reg 26 =" target_M [25:0] $end
$var reg 1 L zero_M $end
$upscope $end
$scope module Id_Ex $end
$var wire 1 . ALUSrc $end
$var wire 4 >" ALUctr [3:0] $end
$var wire 1 , ExtOp $end
$var wire 1 + MemWr $end
$var wire 1 * MemtoReg $end
$var wire 4 ?" NPCop [3:0] $end
$var wire 5 @" Rd [4:0] $end
$var wire 1 ( RegDst $end
$var wire 1 ' RegWr $end
$var wire 5 A" Rs [4:0] $end
$var wire 5 B" Rt [4:0] $end
$var wire 1 ! clk $end
$var wire 1 % if_branch $end
$var wire 16 C" imm16 [15:0] $end
$var wire 5 D" shamt [4:0] $end
$var wire 26 E" target [25:0] $end
$var wire 32 F" rt_data [31:0] $end
$var wire 32 G" rs_data [31:0] $end
$var wire 32 H" PC_D [31:0] $end
$var reg 1 -" ALUSrc_E $end
$var reg 4 I" ALUctr_E [3:0] $end
$var reg 1 +" ExtOp_E $end
$var reg 1 *" MemWr_E $end
$var reg 1 (" MemtoReg_E $end
$var reg 4 J" NPCop_E [3:0] $end
$var reg 32 K" PC_E [31:0] $end
$var reg 5 L" Rd_E [4:0] $end
$var reg 1 u RegDst_E $end
$var reg 1 r RegWr_E $end
$var reg 5 M" Rs_E [4:0] $end
$var reg 5 N" Rt_E [4:0] $end
$var reg 1 b if_branch_E $end
$var reg 16 O" imm16_E [15:0] $end
$var reg 32 P" rs_data_E [31:0] $end
$var reg 32 Q" rt_data_E [31:0] $end
$var reg 5 R" shamt_E [4:0] $end
$var reg 26 S" target_E [25:0] $end
$upscope $end
$scope module If_Id $end
$var wire 1 ! clk $end
$var wire 32 T" instruction_F [31:0] $end
$var wire 32 U" PC [31:0] $end
$var reg 32 V" PC_D [31:0] $end
$var reg 32 W" instruction_D [31:0] $end
$upscope $end
$scope module Mem_Wb $end
$var wire 1 '" MemtoReg_M $end
$var wire 4 X" NPCop_M [3:0] $end
$var wire 32 Y" PC_M [31:0] $end
$var wire 5 Z" Rd_M [4:0] $end
$var wire 1 t RegDst_M $end
$var wire 1 q RegWr_M $end
$var wire 5 [" Rt_M [4:0] $end
$var wire 1 ! clk $end
$var wire 32 \" ext_result_M [31:0] $end
$var wire 32 ]" result_M [31:0] $end
$var wire 26 ^" target_M [25:0] $end
$var wire 1 L zero_M $end
$var wire 32 _" dout [31:0] $end
$var reg 1 &" MemtoReg_W $end
$var reg 4 `" NPCop_W [3:0] $end
$var reg 32 a" PC_W [31:0] $end
$var reg 5 b" Rd_W [4:0] $end
$var reg 1 s RegDst_W $end
$var reg 1 p RegWr_W $end
$var reg 5 c" Rt_W [4:0] $end
$var reg 32 d" dout_W [31:0] $end
$var reg 32 e" ext_result_W [31:0] $end
$var reg 32 f" result_W [31:0] $end
$var reg 26 g" target_W [25:0] $end
$var reg 1 K zero_W $end
$upscope $end
$scope module SignExt $end
$var wire 1 +" ext_op $end
$var wire 1 b if_branch $end
$var wire 16 h" imm [15:0] $end
$var reg 32 i" ext_result [31:0] $end
$upscope $end
$scope module alu $end
$var wire 32 j" a [31:0] $end
$var wire 4 k" alu_ctrl [3:0] $end
$var wire 5 l" shamt [4:0] $end
$var wire 1 M zero $end
$var wire 32 m" b [31:0] $end
$var parameter 4 n" ADD $end
$var parameter 4 o" ADDI $end
$var parameter 4 p" ADDIU $end
$var parameter 4 q" AND $end
$var parameter 4 r" LUI $end
$var parameter 4 s" OR $end
$var parameter 4 t" ORI $end
$var parameter 4 u" SLL $end
$var parameter 4 v" SLT $end
$var parameter 4 w" SUB $end
$var parameter 4 x" XOR $end
$var reg 32 y" result [31:0] $end
$upscope $end
$scope module aluMux $end
$var wire 1 -" ALUSrc $end
$var wire 32 z" Ext_result [31:0] $end
$var wire 32 {" Rt_data [31:0] $end
$var reg 32 |" Data [31:0] $end
$upscope $end
$scope module dm $end
$var wire 32 }" addr [31:0] $end
$var wire 1 ! clk $end
$var wire 32 ~" din [31:0] $end
$var wire 32 !# dout [31:0] $end
$var wire 1 )" we $end
$upscope $end
$scope module im $end
$var wire 32 "# pc [31:0] $end
$var reg 32 ## dout [31:0] $end
$upscope $end
$scope module npc $end
$var wire 4 $# NPCop [3:0] $end
$var wire 32 %# PC [31:0] $end
$var wire 32 &# PC_plus_4 [31:0] $end
$var wire 32 '# ext_result [31:0] $end
$var wire 26 (# target [25:0] $end
$var wire 1 L zero $end
$var parameter 4 )# ADD4 $end
$var parameter 4 *# BEQ $end
$var parameter 4 +# BGEZ $end
$var parameter 4 ,# BGTZ $end
$var parameter 4 -# BLEZ $end
$var parameter 4 .# BLTZ $end
$var parameter 4 /# BNE $end
$var parameter 4 0# JAL $end
$var parameter 4 1# JALR $end
$var parameter 4 2# JR $end
$var parameter 4 3# JUMP $end
$var reg 32 4# NPC [31:0] $end
$upscope $end
$scope module pc $end
$var wire 1 ! clk $end
$var wire 32 5# npc [31:0] $end
$var wire 1 " rst $end
$var reg 32 6# pc [31:0] $end
$upscope $end
$scope module regMux $end
$var wire 32 7# ALUoutput [31:0] $end
$var wire 32 8# MEMouput [31:0] $end
$var wire 1 &" MemtoReg $end
$var reg 32 9# Data [31:0] $end
$upscope $end
$scope module regfile $end
$var wire 1 s RegDst $end
$var wire 1 ! clk $end
$var wire 5 :# rd_W [4:0] $end
$var wire 5 ;# rs [4:0] $end
$var wire 5 <# rt [4:0] $end
$var wire 5 =# rt_W [4:0] $end
$var wire 32 ># wd [31:0] $end
$var wire 1 p wr $end
$var wire 32 ?# rt_data [31:0] $end
$var wire 32 @# rs_data [31:0] $end
$var reg 5 A# addr [4:0] $end
$var integer 32 B# i [31:0] $end
$upscope $end
$upscope $end
$upscope $end
$upscope $end
$enddefinitions $end
$comment Show the parameter values. $end
$dumpall
b0 3#
b1000 2#
b1000 1#
b1 0#
b11 /#
b111 .#
b110 -#
b101 ,#
b100 +#
b10 *#
b1111 )#
b11 x"
b110 w"
b1001 v"
b1000 u"
b100 t"
b1 s"
b1111 r"
b0 q"
b101 p"
b111 o"
b10 n"
b11 F
b110 E
b1001 D
b1000 C
b100 B
b1 A
b1111 @
b0 ?
b1000 >
b1000 =
b1 <
b11 ;
b111 :
b110 9
b101 8
b100 7
b10 6
b0 5
b101 4
b111 3
b1111 2
b10 1
$end
#0
$dumpvars
b100000 B#
bx A#
bx @#
bx ?#
bx >#
bx =#
bx <#
bx ;#
bx :#
bx 9#
bx 8#
bx 7#
b11000000000000 6#
b11000000000100 5#
b11000000000100 4#
bx (#
bx '#
b11000000000100 &#
bx %#
bx $#
b100100000100010000000000000010 ##
b11000000000000 "#
bx !#
bx ~"
bx }"
bx |"
bx {"
bx z"
bx y"
bx m"
bx l"
bx k"
bx j"
bx i"
bx h"
bx g"
bx f"
bx e"
bx d"
bx c"
bx b"
bx a"
bx `"
bx _"
bx ^"
bx ]"
bx \"
bx ["
bx Z"
bx Y"
bx X"
bx W"
bx V"
b11000000000000 U"
b100100000100010000000000000010 T"
bx S"
bx R"
bx Q"
bx P"
bx O"
bx N"
bx M"
bx L"
bx K"
bx J"
bx I"
bx H"
bx G"
bx F"
bx E"
bx D"
bx C"
bx B"
bx A"
bx @"
bx ?"
bx >"
bx ="
bx <"
bx ;"
bx :"
bx 9"
bx 8"
bx 7"
bx 6"
bx 5"
bx 4"
bx 3"
bx 2"
bx 1"
bx 0"
bx /"
bx ."
x-"
bx ,"
x+"
x*"
x)"
x("
x'"
x&"
b11000000000100 %"
bx $"
bx #"
bx ""
b11000000000000 !"
bx ~
bx }
bx |
bx {
b11000000000100 z
bx y
bx x
bx w
bx v
xu
xt
xs
xr
xq
xp
bx o
bx n
bx m
bx l
bx k
bx j
bx i
bx h
bx g
bx f
bx e
bx d
bx c
xb
bx a
bx `
bx _
b100100000100010000000000000010 ^
bx ]
bx \
bx [
bx Z
bx Y
bx X
bx W
bx V
bx U
bx T
bx S
bx R
bx Q
bx P
bx O
bx N
xM
xL
xK
bx J
bx I
bx H
bx G
bx 0
bx /
x.
bx -
x,
x+
x*
bx )
x(
x'
bx &
x%
bx $
b0 #
1"
0!
$end
#10
0"
#20
b0 W
b0 F"
b0 ?#
b0 Y
b0 G"
b0 @#
0%
b101 -
b101 G
b101 I
b101 >"
1,
b1111 )
b1111 H
b1111 J
b1111 ?"
0+
1'
0*
1.
1(
b100010000000000000010 R
b100010000000000000010 E"
b10 a
b10 C"
b0 T
b0 D"
b0 y
b0 @"
b10001 m
b10001 B"
b10001 <#
b0 o
b0 A"
b0 ;#
b10 &
b10 0
b10 c
b1001 $
b1001 /
b1001 ]
b11000000000100 ~
b11000000000100 H"
b11000000000100 V"
b100100000100010000000000000010 _
b100100000100010000000000000010 W"
b11000000001000 %"
b11000000001000 4#
b11000000001000 5#
b100100000100100000000000000001 ^
b100100000100100000000000000001 T"
b100100000100100000000000000001 ##
b11000000001000 z
b11000000001000 &#
b11000000000100 !"
b11000000000100 U"
b11000000000100 "#
b11000000000100 6#
1!
b1 #
#40
0!
b10 #
#60
0M
b10 \
b10 0"
b10 y"
b10 i
b10 m"
b10 |"
b10 f
b10 1"
b10 i"
b10 z"
b100100000000000000001 R
b100100000000000000001 E"
b1 a
b1 C"
b10010 m
b10010 B"
b10010 <#
b1 &
b1 0
b1 c
0b
b0 V
b0 /"
b0 Q"
b0 {"
b0 X
b0 P"
b0 j"
b11000000000100 }
b11000000000100 4"
b11000000000100 K"
b100010000000000000010 Q
b100010000000000000010 ."
b100010000000000000010 S"
b10 `
b10 O"
b10 h"
b0 S
b0 R"
b0 l"
b0 x
b0 3"
b0 L"
b10001 l
b10001 2"
b10001 N"
b0 n
b0 M"
b1111 $"
b1111 5"
b1111 J"
b101 ,"
b101 I"
b101 k"
1+"
0*"
1r
0("
1-"
1u
b11000000001000 ~
b11000000001000 H"
b11000000001000 V"
b100100000100100000000000000001 _
b100100000100100000000000000001 W"
b11000000001100 %"
b11000000001100 4#
b11000000001100 5#
b100000000100010000000000000001 ^
b100000000100010000000000000001 T"
b100000000100010000000000000001 ##
b11000000001100 z
b11000000001100 &#
b11000000001000 !"
b11000000001000 U"
b11000000001000 "#
b11000000001000 6#
1!
b11 #
#80
0!
b100 #
#100
b1 \
b1 0"
b1 y"
b111 -
b111 G
b111 I
b111 >"
0,
b1 i
b1 m"
b1 |"
b100010000000000000001 R
b100010000000000000001 E"
b10001 m
b10001 B"
b10001 <#
b1000 $
b1000 /
b1000 ]
b1 f
b1 1"
b1 i"
b1 z"
b11000000001100 ~
b11000000001100 H"
b11000000001100 V"
b100000000100010000000000000001 _
b100000000100010000000000000001 W"
b11000000001000 }
b11000000001000 4"
b11000000001000 K"
b100100000000000000001 Q
b100100000000000000001 ."
b100100000000000000001 S"
b1 `
b1 O"
b1 h"
b10010 l
b10010 2"
b10010 N"
b100010000000000000010 P
b100010000000000000010 ="
b100010000000000000010 ^"
b10001 k
b10001 9"
b10001 ["
1t
b1 h
b1 _"
b1 !#
b10 [
b10 ;"
b10 ]"
b10 }"
0'"
b0 U
b0 <"
b0 ~"
0L
0)"
b1111 #"
b1111 6"
b1111 X"
1q
b11000000000100 |
b11000000000100 7"
b11000000000100 Y"
b0 w
b0 8"
b0 Z"
b10 e
b10 :"
b10 \"
b11000000010000 %"
b11000000010000 4#
b11000000010000 5#
b100000000100100000000000000010 ^
b100000000100100000000000000010 T"
b100000000100100000000000000010 ##
b11000000010000 z
b11000000010000 &#
b11000000001100 !"
b11000000001100 U"
b11000000001100 "#
b11000000001100 6#
1!
b101 #
#120
0!
b110 #
#140
b10 N
b10 9#
b10 >#
b100100000000000000010 R
b100100000000000000010 E"
b10 a
b10 C"
b10010 m
b10010 B"
b10010 <#
b10 &
b10 0
b10 c
b1 g
b1 d"
b1 8#
b10 Z
b10 f"
b10 7#
0&"
b100010000000000000010 O
b100010000000000000010 g"
b100010000000000000010 (#
b10001 j
b10001 c"
b10001 =#
1s
0K
b1111 ""
b1111 `"
b1111 $#
1p
b11000000000100 {
b11000000000100 a"
b11000000000100 %#
b0 v
b0 b"
b0 :#
b10 d
b10 e"
b10 '#
b100100000000000000001 P
b100100000000000000001 ="
b100100000000000000001 ^"
b10010 k
b10010 9"
b10010 ["
b11 h
b11 _"
b11 !#
b1 [
b1 ;"
b1 ]"
b1 }"
b11000000001000 |
b11000000001000 7"
b11000000001000 Y"
b1 e
b1 :"
b1 \"
b11000000001100 }
b11000000001100 4"
b11000000001100 K"
b100010000000000000001 Q
b100010000000000000001 ."
b100010000000000000001 S"
b10001 l
b10001 2"
b10001 N"
b111 ,"
b111 I"
b111 k"
0+"
b11000000010000 ~
b11000000010000 H"
b11000000010000 V"
b100000000100100000000000000010 _
b100000000100100000000000000010 W"
b11000000010100 %"
b11000000010100 4#
b11000000010100 5#
b10001100101001100000100000 ^
b10001100101001100000100000 T"
b10001100101001100000100000 ##
b11000000010100 z
b11000000010100 &#
b11000000010000 !"
b11000000010000 U"
b11000000010000 "#
b11000000010000 6#
1!
b111 #
#160
0!
b1000 #
#180
b10 \
b10 0"
b10 y"
b10 Y
b10 G"
b10 @#
b10 -
b10 G
b10 I
b10 >"
0.
0(
b10 i
b10 m"
b10 |"
b10001100101001100000100000 R
b10001100101001100000100000 E"
b1001100000100000 a
b1001100000100000 C"
b10011 y
b10011 @"
b10001 o
b10001 A"
b10001 ;#
b100000 &
b100000 0
b100000 c
b0 $
b0 /
b0 ]
b10 f
b10 1"
b10 i"
b10 z"
b1 N
b1 9#
b1 >#
b11000000010100 ~
b11000000010100 H"
b11000000010100 V"
b10001100101001100000100000 _
b10001100101001100000100000 W"
b11000000010000 }
b11000000010000 4"
b11000000010000 K"
b100100000000000000010 Q
b100100000000000000010 ."
b100100000000000000010 S"
b10 `
b10 O"
b10 h"
b10010 l
b10010 2"
b10010 N"
b100010000000000000001 P
b100010000000000000001 ="
b100010000000000000001 ^"
b10001 k
b10001 9"
b10001 ["
b11000000001100 |
b11000000001100 7"
b11000000001100 Y"
b11 g
b11 d"
b11 8#
b1 Z
b1 f"
b1 7#
b100100000000000000001 O
b100100000000000000001 g"
b100100000000000000001 (#
b10010 j
b10010 c"
b10010 =#
b11000000001000 {
b11000000001000 a"
b11000000001000 %#
b1 d
b1 e"
b1 '#
b11000000011000 %"
b11000000011000 4#
b11000000011000 5#
b10010100011001100000100010 ^
b10010100011001100000100010 T"
b10010100011001100000100010 ##
b10001 A#
b11000000011000 z
b11000000011000 &#
b11000000010100 !"
b11000000010100 U"
b11000000010100 "#
b11000000010100 6#
1!
b1001 #
#200
0!
b1010 #
#220
b1 Y
b1 G"
b1 @#
b110 -
b110 G
b110 I
b110 >"
b1001100000100000 f
b1001100000100000 1"
b1001100000100000 i"
b1001100000100000 z"
b0 i
b0 m"
b0 |"
b10010100011001100000100010 R
b10010100011001100000100010 E"
b1001100000100010 a
b1001100000100010 C"
b10001 m
b10001 B"
b10001 <#
b10010 o
b10010 A"
b10010 ;#
b100010 &
b100010 0
b100010 c
b100010000000000000001 O
b100010000000000000001 g"
b100010000000000000001 (#
b10001 j
b10001 c"
b10001 =#
b11000000001100 {
b11000000001100 a"
b11000000001100 %#
b100100000000000000010 P
b100100000000000000010 ="
b100100000000000000010 ^"
b10010 k
b10010 9"
b10010 ["
b1 h
b1 _"
b1 !#
b10 [
b10 ;"
b10 ]"
b10 }"
b11000000010000 |
b11000000010000 7"
b11000000010000 Y"
b10 e
b10 :"
b10 \"
b10 X
b10 P"
b10 j"
b11000000010100 }
b11000000010100 4"
b11000000010100 K"
b10001100101001100000100000 Q
b10001100101001100000100000 ."
b10001100101001100000100000 S"
b1001100000100000 `
b1001100000100000 O"
b1001100000100000 h"
b10011 x
b10011 3"
b10011 L"
b10001 n
b10001 M"
b10 ,"
b10 I"
b10 k"
0-"
0u
b11000000011000 ~
b11000000011000 H"
b11000000011000 V"
b10010100011001100000100010 _
b10010100011001100000100010 W"
b10 W
b10 F"
b10 ?#
b11000000011100 %"
b11000000011100 4#
b11000000011100 5#
b10001100101001100000100100 ^
b10001100101001100000100100 T"
b10001100101001100000100100 ##
b10010 A#
b11000000011100 z
b11000000011100 &#
b11000000011000 !"
b11000000011000 U"
b11000000011000 "#
b11000000011000 6#
1!
b1011 #
#240
0!
b1100 #
#260
b0 -
b0 G
b0 I
b0 >"
b10001100101001100000100100 R
b10001100101001100000100100 E"
b1001100000100100 a
b1001100000100100 C"
b10010 m
b10010 B"
b10010 <#
b10001 o
b10001 A"
b10001 ;#
b100100 &
b100100 0
b100100 c
b10 i
b10 m"
b10 |"
b1001100000100010 f
b1001100000100010 1"
b1001100000100010 i"
b1001100000100010 z"
b11111111111111111111111111111111 \
b11111111111111111111111111111111 0"
b11111111111111111111111111111111 y"
b10 N
b10 9#
b10 >#
b11000000011100 ~
b11000000011100 H"
b11000000011100 V"
b10001100101001100000100100 _
b10001100101001100000100100 W"
b10 V
b10 /"
b10 Q"
b10 {"
b1 X
b1 P"
b1 j"
b11000000011000 }
b11000000011000 4"
b11000000011000 K"
b10010100011001100000100010 Q
b10010100011001100000100010 ."
b10010100011001100000100010 S"
b1001100000100010 `
b1001100000100010 O"
b1001100000100010 h"
b10001 l
b10001 2"
b10001 N"
b10010 n
b10010 M"
b110 ,"
b110 I"
b110 k"
b10001100101001100000100000 P
b10001100101001100000100000 ="
b10001100101001100000100000 ^"
0t
b11000000010100 |
b11000000010100 7"
b11000000010100 Y"
b10011 w
b10011 8"
b10011 Z"
b1001100000100000 e
b1001100000100000 :"
b1001100000100000 \"
b1 g
b1 d"
b1 8#
b10 Z
b10 f"
b10 7#
b100100000000000000010 O
b100100000000000000010 g"
b100100000000000000010 (#
b10010 j
b10010 c"
b10010 =#
b11000000010000 {
b11000000010000 a"
b11000000010000 %#
b10 d
b10 e"
b10 '#
b1 W
b1 F"
b1 ?#
b11000000100000 %"
b11000000100000 4#
b11000000100000 5#
b10001100101001100000100101 ^
b10001100101001100000100101 T"
b10001100101001100000100101 ##
b10001 A#
b11000000100000 z
b11000000100000 &#
b11000000011100 !"
b11000000011100 U"
b11000000011100 "#
b11000000011100 6#
1!
b1101 #
#280
0!
b1110 #
#300
b1 -
b1 G
b1 I
b1 >"
b1 i
b1 m"
b1 |"
b1001100000100100 f
b1001100000100100 1"
b1001100000100100 i"
b1001100000100100 z"
0M
b1 \
b1 0"
b1 y"
b10001100101001100000100101 R
b10001100101001100000100101 E"
b1001100000100101 a
b1001100000100101 C"
b100101 &
b100101 0
b100101 c
b10001100101001100000100000 O
b10001100101001100000100000 g"
b10001100101001100000100000 (#
0s
b11000000010100 {
b11000000010100 a"
b11000000010100 %#
b10011 v
b10011 b"
b10011 :#
b1001100000100000 d
b1001100000100000 e"
b1001100000100000 '#
b10010100011001100000100010 P
b10010100011001100000100010 ="
b10010100011001100000100010 ^"
b10001 k
b10001 9"
b10001 ["
bx h
bx _"
bx !#
b11111111111111111111111111111111 [
b11111111111111111111111111111111 ;"
b11111111111111111111111111111111 ]"
b11111111111111111111111111111111 }"
b10 U
b10 <"
b10 ~"
b11000000011000 |
b11000000011000 7"
b11000000011000 Y"
b1001100000100010 e
b1001100000100010 :"
b1001100000100010 \"
b1 V
b1 /"
b1 Q"
b1 {"
b11000000011100 }
b11000000011100 4"
b11000000011100 K"
b10001100101001100000100100 Q
b10001100101001100000100100 ."
b10001100101001100000100100 S"
b1001100000100100 `
b1001100000100100 O"
b1001100000100100 h"
b10010 l
b10010 2"
b10010 N"
b10001 n
b10001 M"
b0 ,"
b0 I"
b0 k"
b11000000100000 ~
b11000000100000 H"
b11000000100000 V"
b10001100101001100000100101 _
b10001100101001100000100101 W"
b10 W
b10 F"
b10 ?#
b11000000100100 %"
b11000000100100 4#
b11000000100100 5#
b110110001100110000000000000101 ^
b110110001100110000000000000101 T"
b110110001100110000000000000101 ##
b10010 A#
b11000000100100 z
b11000000100100 &#
b11000000100000 !"
b11000000100000 U"
b11000000100000 "#
b11000000100000 6#
1!
b1111 #
#320
0!
b10000 #
#340
b100 -
b100 G
b100 I
b100 >"
1.
1(
b11 \
b11 0"
b11 y"
b10001100110000000000000101 R
b10001100110000000000000101 E"
b101 a
b101 C"
b0 y
b0 @"
b10011 m
b10011 B"
b10011 <#
b101 &
b101 0
b101 c
b1101 $
b1101 /
b1101 ]
b10 i
b10 m"
b10 |"
b1001100000100101 f
b1001100000100101 1"
b1001100000100101 i"
b1001100000100101 z"
b11111111111111111111111111111111 N
b11111111111111111111111111111111 9#
b11111111111111111111111111111111 >#
b11000000100100 ~
b11000000100100 H"
b11000000100100 V"
b110110001100110000000000000101 _
b110110001100110000000000000101 W"
b10 V
b10 /"
b10 Q"
b10 {"
b11000000100000 }
b11000000100000 4"
b11000000100000 K"
b10001100101001100000100101 Q
b10001100101001100000100101 ."
b10001100101001100000100101 S"
b1001100000100101 `
b1001100000100101 O"
b1001100000100101 h"
b1 ,"
b1 I"
b1 k"
b10001100101001100000100100 P
b10001100101001100000100100 ="
b10001100101001100000100100 ^"
b10010 k
b10010 9"
b10010 ["
b11 h
b11 _"
b11 !#
b1 [
b1 ;"
b1 ]"
b1 }"
b1 U
b1 <"
b1 ~"
b11000000011100 |
b11000000011100 7"
b11000000011100 Y"
b1001100000100100 e
b1001100000100100 :"
b1001100000100100 \"
bx g
bx d"
bx 8#
b11111111111111111111111111111111 Z
b11111111111111111111111111111111 f"
b11111111111111111111111111111111 7#
b10010100011001100000100010 O
b10010100011001100000100010 g"
b10010100011001100000100010 (#
b10001 j
b10001 c"
b10001 =#
b11000000011000 {
b11000000011000 a"
b11000000011000 %#
b1001100000100010 d
b1001100000100010 e"
b1001100000100010 '#
b11000000101000 %"
b11000000101000 4#
b11000000101000 5#
b10001100101001100000100110 ^
b10001100101001100000100110 T"
b10001100101001100000100110 ##
b10011 A#
b11000000101000 z
b11000000101000 &#
b11000000100100 !"
b11000000100100 U"
b11000000100100 "#
b11000000100100 6#
1!
b10001 #
#360
0!
b10010 #
#380
b11 -
b11 G
b11 I
b11 >"
0.
0(
b1 N
b1 9#
b1 >#
b101 f
b101 1"
b101 i"
b101 z"
b101 \
b101 0"
b101 y"
b101 i
b101 m"
b101 |"
b10001100101001100000100110 R
b10001100101001100000100110 E"
b1001100000100110 a
b1001100000100110 C"
b10011 y
b10011 @"
b10010 m
b10010 B"
b10010 <#
b100110 &
b100110 0
b100110 c
b0 $
b0 /
b0 ]
b11 g
b11 d"
b11 8#
b1 Z
b1 f"
b1 7#
b10001100101001100000100100 O
b10001100101001100000100100 g"
b10001100101001100000100100 (#
b10010 j
b10010 c"
b10010 =#
b11000000011100 {
b11000000011100 a"
b11000000011100 %#
b1001100000100100 d
b1001100000100100 e"
b1001100000100100 '#
b10001100101001100000100101 P
b10001100101001100000100101 ="
b10001100101001100000100101 ^"
b110 h
b110 _"
b110 !#
b11 [
b11 ;"
b11 ]"
b11 }"
b10 U
b10 <"
b10 ~"
b11000000100000 |
b11000000100000 7"
b11000000100000 Y"
b1001100000100101 e
b1001100000100101 :"
b1001100000100101 \"
b11000000100100 }
b11000000100100 4"
b11000000100100 K"
b10001100110000000000000101 Q
b10001100110000000000000101 ."
b10001100110000000000000101 S"
b101 `
b101 O"
b101 h"
b0 x
b0 3"
b0 L"
b10011 l
b10011 2"
b10011 N"
b100 ,"
b100 I"
b100 k"
1-"
1u
b11000000101000 ~
b11000000101000 H"
b11000000101000 V"
b10001100101001100000100110 _
b10001100101001100000100110 W"
b10 W
b10 F"
b10 ?#
b11000000101100 %"
b11000000101100 4#
b11000000101100 5#
b10001100101001100000101010 ^
b10001100101001100000101010 T"
b10001100101001100000101010 ##
b11000000101100 z
b11000000101100 &#
b11000000101000 !"
b11000000101000 U"
b11000000101000 "#
b11000000101000 6#
1!
b10011 #
#400
0!
b10100 #
