testBench.vcd
$date
	Fri Dec 02 22:20:55 2022
$end
$version
	Icarus Verilog
$end
$timescale
	1ps
$end
$scope module Testbench $end
$var reg 1 ! clk $end
$var reg 1 " rst $end
$var integer 32 # cnt [31:0] $end
$scope module mips $end
$var wire 1 ! clk $end
$var wire 1 " rst $end
$var wire 6 $ op [5:0] $end
$var wire 1 % if_undefined $end
$var wire 1 & if_branch $end
$var wire 6 ' func [5:0] $end
$var wire 1 ( RegWr $end
$var wire 1 ) RegDst $end
$var wire 32 * PC_D [31:0] $end
$var wire 4 + NPCop [3:0] $end
$var wire 1 , MemtoReg $end
$var wire 1 - MemWr $end
$var wire 1 . ExtOp $end
$var wire 4 / ALUctr [3:0] $end
$var wire 1 0 ALUSrc $end
$scope module controller $end
$var wire 6 1 op [5:0] $end
$var wire 6 2 func [5:0] $end
$var wire 32 3 PC_D [31:0] $end
$var parameter 4 4 ADD $end
$var parameter 4 5 ADD4 $end
$var parameter 4 6 ADDI $end
$var parameter 4 7 ADDIU $end
$var parameter 4 8 AND $end
$var parameter 4 9 BEQ $end
$var parameter 4 : BGEZ $end
$var parameter 4 ; BGTZ $end
$var parameter 4 < BLEZ $end
$var parameter 4 = BLTZ $end
$var parameter 4 > BNE $end
$var parameter 4 ? JAL $end
$var parameter 4 @ JALR $end
$var parameter 4 A JR $end
$var parameter 4 B JUMP $end
$var parameter 4 C LUI $end
$var parameter 4 D OR $end
$var parameter 4 E ORI $end
$var parameter 4 F SLT $end
$var parameter 4 G SUB $end
$var parameter 4 H XOR $end
$var reg 1 0 ALUSrc $end
$var reg 4 I ALUctr [3:0] $end
$var reg 1 . ExtOp $end
$var reg 1 - MemWr $end
$var reg 1 , MemtoReg $end
$var reg 4 J NPCop [3:0] $end
$var reg 1 ) RegDst $end
$var reg 1 ( RegWr $end
$var reg 1 & if_branch $end
$var reg 1 % if_undefined $end
$upscope $end
$scope module datapath $end
$var wire 1 0 ALUSrc $end
$var wire 4 K ALUctr [3:0] $end
$var wire 1 . ExtOp $end
$var wire 1 L ForwardRs_D $end
$var wire 1 M ForwardRt_D $end
$var wire 1 N ID_Ex_flush $end
$var wire 1 - MemWr $end
$var wire 1 , MemtoReg $end
$var wire 4 O NPCop [3:0] $end
$var wire 1 ) RegDst $end
$var wire 1 ( RegWr $end
$var wire 1 ! clk $end
$var wire 1 & if_branch $end
$var wire 1 % if_undefined $end
$var wire 1 " rst $end
$var wire 1 P zero_W $end
$var wire 1 Q zero_M $end
$var wire 1 R zero_D $end
$var wire 1 S zero $end
$var wire 32 T wd_M [31:0] $end
$var wire 32 U wd [31:0] $end
$var wire 26 V target_W [25:0] $end
$var wire 26 W target_M [25:0] $end
$var wire 26 X target_E [25:0] $end
$var wire 26 Y target [25:0] $end
$var wire 5 Z shamt_E [4:0] $end
$var wire 5 [ shamt [4:0] $end
$var wire 32 \ rt_data_final [31:0] $end
$var wire 32 ] rt_data_M [31:0] $end
$var wire 32 ^ rt_data_E [31:0] $end
$var wire 32 _ rt_data [31:0] $end
$var wire 32 ` rs_data_final [31:0] $end
$var wire 32 a rs_data_E [31:0] $end
$var wire 32 b rs_data [31:0] $end
$var wire 32 c result_W [31:0] $end
$var wire 32 d result_M [31:0] $end
$var wire 32 e result [31:0] $end
$var wire 6 f op [5:0] $end
$var wire 32 g instruction_F [31:0] $end
$var wire 32 h instruction_D [31:0] $end
$var wire 16 i imm16_E [15:0] $end
$var wire 16 j imm16 [15:0] $end
$var wire 1 k if_overflow_W $end
$var wire 1 l if_overflow_M $end
$var wire 1 m if_overflow_E $end
$var wire 1 n if_branch_E $end
$var wire 6 o func [5:0] $end
$var wire 32 p ext_result_W [31:0] $end
$var wire 32 q ext_result_M [31:0] $end
$var wire 32 r ext_result_D [31:0] $end
$var wire 32 s ext_result [31:0] $end
$var wire 32 t dout_W [31:0] $end
$var wire 32 u dout [31:0] $end
$var wire 32 v data [31:0] $end
$var wire 5 w Rt_E [4:0] $end
$var wire 5 x Rt [4:0] $end
$var wire 5 y Rs_E [4:0] $end
$var wire 5 z Rs [4:0] $end
$var wire 1 { RegWr_W $end
$var wire 1 | RegWr_M $end
$var wire 1 } RegWr_E $end
$var wire 5 ~ RegWrDst_W [4:0] $end
$var wire 5 !" RegWrDst_M [4:0] $end
$var wire 5 "" RegWrDst_E [4:0] $end
$var wire 5 #" RegWrDst [4:0] $end
$var wire 5 $" Rd [4:0] $end
$var wire 32 %" PC_plus_4 [31:0] $end
$var wire 32 &" PC_W [31:0] $end
$var wire 32 '" PC_M [31:0] $end
$var wire 32 (" PC_F [31:0] $end
$var wire 32 )" PC_E [31:0] $end
$var wire 32 *" PC_D [31:0] $end
$var wire 1 +" PCEnF $end
$var wire 32 ," PC [31:0] $end
$var wire 4 -" NPCop_W [3:0] $end
$var wire 4 ." NPCop_M [3:0] $end
$var wire 4 /" NPCop_E [3:0] $end
$var wire 32 0" NPC [31:0] $end
$var wire 1 1" MemtoReg_W $end
$var wire 1 2" MemtoReg_M $end
$var wire 1 3" MemtoReg_E $end
$var wire 1 4" MemWr_M $end
$var wire 1 5" MemWr_E $end
$var wire 1 6" IF_ID_wr $end
$var wire 1 7" IF_ID_flush $end
$var wire 2 8" Forward_Rt_E [1:0] $end
$var wire 2 9" Forward_Rs_E [1:0] $end
$var wire 1 :" ExtOp_E $end
$var wire 1 ;" C_L_DE_Rt $end
$var wire 1 <" C_L_DE_Rs $end
$var wire 1 =" C_B_DM_Rt $end
$var wire 1 >" C_B_DM_Rs $end
$var wire 1 ?" C_B_D $end
$var wire 4 @" ALUctr_E [3:0] $end
$var wire 1 A" ALUSrc_E $end
$scope module Ex_Mem $end
$var wire 1 ! clk $end
$var wire 1 S zero $end
$var wire 26 B" target_E [25:0] $end
$var wire 32 C" rt_data [31:0] $end
$var wire 32 D" result [31:0] $end
$var wire 1 m if_overflow_E $end
$var wire 32 E" ext_result [31:0] $end
$var wire 1 } RegWr_E $end
$var wire 5 F" RegWrDst_E [4:0] $end
$var wire 32 G" PC_E [31:0] $end
$var wire 4 H" NPCop_E [3:0] $end
$var wire 1 3" MemtoReg_E $end
$var wire 1 5" MemWr_E $end
$var reg 1 4" MemWr_M $end
$var reg 1 2" MemtoReg_M $end
$var reg 4 I" NPCop_M [3:0] $end
$var reg 32 J" PC_M [31:0] $end
$var reg 5 K" RegWrDst_M [4:0] $end
$var reg 1 | RegWr_M $end
$var reg 32 L" ext_result_M [31:0] $end
$var reg 1 l if_overflow_M $end
$var reg 32 M" result_M [31:0] $end
$var reg 32 N" rt_data_M [31:0] $end
$var reg 26 O" target_M [25:0] $end
$var reg 1 Q zero_M $end
$upscope $end
$scope module Id_Ex $end
$var wire 1 0 ALUSrc $end
$var wire 4 P" ALUctr [3:0] $end
$var wire 1 . ExtOp $end
$var wire 1 N ID_Ex_flush $end
$var wire 1 - MemWr $end
$var wire 1 , MemtoReg $end
$var wire 4 Q" NPCop [3:0] $end
$var wire 1 ( RegWr $end
$var wire 5 R" RegWrDst [4:0] $end
$var wire 5 S" Rs [4:0] $end
$var wire 5 T" Rt [4:0] $end
$var wire 1 ! clk $end
$var wire 1 & if_branch $end
$var wire 1 % if_undefined $end
$var wire 16 U" imm16 [15:0] $end
$var wire 5 V" shamt [4:0] $end
$var wire 26 W" target [25:0] $end
$var wire 32 X" rt_data [31:0] $end
$var wire 32 Y" rs_data [31:0] $end
$var wire 32 Z" ext_result_D [31:0] $end
$var wire 32 [" PC_D [31:0] $end
$var reg 1 A" ALUSrc_E $end
$var reg 4 \" ALUctr_E [3:0] $end
$var reg 1 :" ExtOp_E $end
$var reg 1 5" MemWr_E $end
$var reg 1 3" MemtoReg_E $end
$var reg 4 ]" NPCop_E [3:0] $end
$var reg 32 ^" PC_E [31:0] $end
$var reg 5 _" RegWrDst_E [4:0] $end
$var reg 1 } RegWr_E $end
$var reg 5 `" Rs_E [4:0] $end
$var reg 5 a" Rt_E [4:0] $end
$var reg 32 b" ext_result [31:0] $end
$var reg 1 n if_branch_E $end
$var reg 16 c" imm16_E [15:0] $end
$var reg 32 d" rs_data_E [31:0] $end
$var reg 32 e" rt_data_E [31:0] $end
$var reg 5 f" shamt_E [4:0] $end
$var reg 26 g" target_E [25:0] $end
$upscope $end
$scope module If_Id $end
$var wire 1 ! clk $end
$var wire 32 h" instruction_F [31:0] $end
$var wire 32 i" PC [31:0] $end
$var wire 1 6" IF_ID_wr $end
$var wire 1 7" IF_ID_flush $end
$var reg 32 j" PC_D [31:0] $end
$var reg 32 k" instruction_D [31:0] $end
$upscope $end
$scope module Mem_Wb $end
$var wire 1 2" MemtoReg_M $end
$var wire 4 l" NPCop_M [3:0] $end
$var wire 32 m" PC_M [31:0] $end
$var wire 5 n" RegWrDst_M [4:0] $end
$var wire 1 | RegWr_M $end
$var wire 1 ! clk $end
$var wire 32 o" ext_result_M [31:0] $end
$var wire 1 l if_overflow_M $end
$var wire 32 p" result_M [31:0] $end
$var wire 26 q" target_M [25:0] $end
$var wire 1 Q zero_M $end
$var wire 32 r" wd_M [31:0] $end
$var wire 32 s" dout [31:0] $end
$var reg 1 1" MemtoReg_W $end
$var reg 4 t" NPCop_W [3:0] $end
$var reg 32 u" PC_W [31:0] $end
$var reg 5 v" RegWrDst_W [4:0] $end
$var reg 1 { RegWr_W $end
$var reg 32 w" dout_W [31:0] $end
$var reg 32 x" ext_result_W [31:0] $end
$var reg 1 k if_overflow_W $end
$var reg 32 y" result_W [31:0] $end
$var reg 26 z" target_W [25:0] $end
$var reg 32 {" wd [31:0] $end
$var reg 1 P zero_W $end
$upscope $end
$scope module SignExt $end
$var wire 1 . ext_op $end
$var wire 1 & if_branch $end
$var wire 16 |" imm [15:0] $end
$var reg 32 }" ext_result [31:0] $end
$upscope $end
$scope module alu $end
$var wire 32 ~" PC_E [31:0] $end
$var wire 4 !# alu_ctrl [3:0] $end
$var wire 5 "# shamt [4:0] $end
$var wire 1 S zero $end
$var wire 32 ## b [31:0] $end
$var wire 32 $# a [31:0] $end
$var parameter 4 %# ADD $end
$var parameter 4 &# ADDI $end
$var parameter 4 '# ADDIU $end
$var parameter 4 (# AND $end
$var parameter 4 )# LUI $end
$var parameter 4 *# OR $end
$var parameter 4 +# ORI $end
$var parameter 4 ,# SLT $end
$var parameter 4 -# SUB $end
$var parameter 4 .# XOR $end
$var reg 1 m if_overflow $end
$var reg 32 /# result [31:0] $end
$upscope $end
$scope module aluMux $end
$var wire 1 A" ALUSrc $end
$var wire 32 0# Ext_result [31:0] $end
$var wire 32 1# Rt_data [31:0] $end
$var reg 32 2# Data [31:0] $end
$upscope $end
$scope module branch_hazard $end
$var wire 1 3" MemtoReg_E $end
$var wire 1 2" MemtoReg_M $end
$var wire 5 3# RegWrDst_E [4:0] $end
$var wire 5 4# RegWrDst_M [4:0] $end
$var wire 1 } RegWr_E $end
$var wire 1 | RegWr_M $end
$var wire 1 & if_branch $end
$var wire 5 5# rs_D [4:0] $end
$var wire 5 6# rt_D [4:0] $end
$var parameter 4 7# BEQ $end
$var parameter 4 8# JUMP $end
$var reg 1 ?" C_B_D $end
$var reg 1 >" C_B_DM_Rs $end
$var reg 1 =" C_B_DM_Rt $end
$upscope $end
$scope module compute_branch $end
$var wire 1 L ForwardRs_D $end
$var wire 1 M ForwardRt_D $end
$var wire 32 9# result_M [31:0] $end
$var wire 32 :# rt_data [31:0] $end
$var wire 32 ;# rs_data [31:0] $end
$var reg 32 <# A [31:0] $end
$var reg 32 =# B [31:0] $end
$var reg 1 R zero_D $end
$upscope $end
$scope module dm $end
$var wire 32 ># addr [31:0] $end
$var wire 1 ! clk $end
$var wire 32 ?# din [31:0] $end
$var wire 32 @# dout [31:0] $end
$var wire 1 l if_overflow $end
$var wire 1 4" we $end
$var reg 32 A# addr_bak [31:0] $end
$var reg 32 B# din_bak [31:0] $end
$upscope $end
$scope module forward $end
$var wire 5 C# RegWrDst_M [4:0] $end
$var wire 5 D# RegWrDst_W [4:0] $end
$var wire 1 | RegWr_M $end
$var wire 1 { RegWr_W $end
$var wire 5 E# Rs_E [4:0] $end
$var wire 5 F# Rt_E [4:0] $end
$var reg 1 G# C_R_EM_Rs $end
$var reg 1 H# C_R_EM_Rt $end
$var reg 1 I# C_R_EW_Rs $end
$var reg 1 J# C_R_EW_Rt $end
$var reg 2 K# Forward_RSE [1:0] $end
$var reg 2 L# Forward_RTE [1:0] $end
$upscope $end
$scope module im $end
$var wire 32 M# PC [31:0] $end
$var reg 32 N# PC_F [31:0] $end
$var reg 32 O# dout [31:0] $end
$upscope $end
$scope module load_hazard $end
$var wire 5 P# DstE [4:0] $end
$var wire 1 3" MemtoReg_E $end
$var wire 5 Q# rs_D [4:0] $end
$var wire 5 R# rt_D [4:0] $end
$var reg 1 <" C_L_DE_Rs $end
$var reg 1 ;" C_L_DE_Rt $end
$upscope $end
$scope module mux3 $end
$var wire 2 S# Forward_RSE [1:0] $end
$var wire 32 T# alu_out [31:0] $end
$var wire 32 U# reg_wr_data [31:0] $end
$var wire 32 V# rs_data_E [31:0] $end
$var reg 32 W# rs_data_final [31:0] $end
$upscope $end
$scope module mux4 $end
$var wire 2 X# Forward_RTE [1:0] $end
$var wire 32 Y# alu_out [31:0] $end
$var wire 32 Z# reg_wr_data [31:0] $end
$var wire 32 [# rt_data_E [31:0] $end
$var reg 32 \# rt_data_final [31:0] $end
$upscope $end
$scope module mux5 $end
$var wire 1 ?" C_B_D $end
$var wire 1 <" C_L_DE_Rs $end
$var wire 1 ;" C_L_DE_Rt $end
$var reg 1 6" IF_ID_wr $end
$upscope $end
$scope module mux6 $end
$var wire 1 & if_branch $end
$var wire 1 R zero_D $end
$var reg 1 7" IF_ID_flush $end
$upscope $end
$scope module mux7 $end
$var wire 1 ?" C_B_D $end
$var wire 1 <" C_L_DE_Rs $end
$var wire 1 ;" C_L_DE_Rt $end
$var reg 1 +" PCEnF $end
$upscope $end
$scope module npc $end
$var wire 4 ]# NPCop [3:0] $end
$var wire 32 ^# PC [31:0] $end
$var wire 32 _# ext_result [31:0] $end
$var wire 26 `# target [25:0] $end
$var wire 1 R zero_D $end
$var wire 32 a# PC_plus_4 [31:0] $end
$var parameter 4 b# ADD4 $end
$var parameter 4 c# BEQ $end
$var parameter 4 d# BGEZ $end
$var parameter 4 e# BGTZ $end
$var parameter 4 f# BLEZ $end
$var parameter 4 g# BLTZ $end
$var parameter 4 h# BNE $end
$var parameter 4 i# JAL $end
$var parameter 4 j# JALR $end
$var parameter 4 k# JR $end
$var parameter 4 l# JUMP $end
$var reg 32 m# NPC [31:0] $end
$upscope $end
$scope module pc $end
$var wire 1 +" PCEnF $end
$var wire 1 ! clk $end
$var wire 32 n# npc [31:0] $end
$var wire 1 " rst $end
$var reg 32 o# PC_plus_4 [31:0] $end
$var reg 32 p# pc [31:0] $end
$upscope $end
$scope module regMux $end
$var wire 32 q# ALUoutput [31:0] $end
$var wire 32 r# MEMouput [31:0] $end
$var wire 1 2" MemtoReg $end
$var reg 32 s# Data [31:0] $end
$upscope $end
$scope module regfile $end
$var wire 5 t# RegWrDst_W [4:0] $end
$var wire 1 ! clk $end
$var wire 1 k if_overflow $end
$var wire 5 u# rs [4:0] $end
$var wire 5 v# rt [4:0] $end
$var wire 32 w# wd [31:0] $end
$var wire 1 { wr $end
$var wire 32 x# rt_data [31:0] $end
$var wire 32 y# rs_data [31:0] $end
$var integer 32 z# i [31:0] $end
$upscope $end
$upscope $end
$upscope $end
$upscope $end
$enddefinitions $end
$comment Show the parameter values. $end
$dumpall
b0 l#
b1000 k#
b1000 j#
b1 i#
b11 h#
b111 g#
b110 f#
b101 e#
b100 d#
b10 c#
b1111 b#
b0 8#
b10 7#
b11 .#
b110 -#
b1001 ,#
b100 +#
b1 *#
b1111 )#
b0 (#
b101 '#
b111 &#
b10 %#
b11 H
b110 G
b1001 F
b100 E
b1 D
b1111 C
b0 B
b1000 A
b1000 @
b1 ?
b11 >
b111 =
b110 <
b101 ;
b100 :
b10 9
b0 8
b101 7
b111 6
b1111 5
b10 4
$end
#0
$dumpvars
b100000 z#
bx y#
bx x#
bx w#
bx v#
bx u#
bx t#
bx s#
bx r#
bx q#
b11000000000000 p#
b11000000000100 o#
b11000000000100 n#
b11000000000100 m#
b11000000000100 a#
bx `#
bx _#
bx ^#
bx ]#
bx \#
bx [#
bx Z#
bx Y#
bx X#
bx W#
bx V#
bx U#
bx T#
bx S#
bx R#
bx Q#
bx P#
b0 O#
b11000000000000 N#
b11000000000000 M#
bx L#
bx K#
xJ#
xI#
xH#
xG#
bx F#
bx E#
bx D#
bx C#
bx B#
bx A#
bx @#
bx ?#
bx >#
bx =#
bx <#
bx ;#
bx :#
bx 9#
bx 6#
bx 5#
bx 4#
bx 3#
bx 2#
bx 1#
bx 0#
bx /#
bx $#
bx ##
bx "#
bx !#
bx ~"
bx }"
bx |"
bx {"
bx z"
bx y"
bx x"
bx w"
bx v"
bx u"
bx t"
bx s"
bx r"
bx q"
bx p"
bx o"
bx n"
bx m"
bx l"
bx k"
bx j"
b11000000000000 i"
b0 h"
bx g"
bx f"
bx e"
bx d"
bx c"
bx b"
bx a"
bx `"
bx _"
bx ^"
bx ]"
bx \"
bx ["
bx Z"
bx Y"
bx X"
bx W"
bx V"
bx U"
bx T"
bx S"
bx R"
bx Q"
bx P"
bx O"
bx N"
bx M"
bx L"
bx K"
bx J"
bx I"
bx H"
bx G"
bx F"
bx E"
bx D"
bx C"
bx B"
xA"
bx @"
x?"
x>"
x="
0<"
0;"
x:"
bx 9"
bx 8"
07"
16"
x5"
x4"
03"
x2"
x1"
b11000000000100 0"
bx /"
bx ."
bx -"
b11000000000000 ,"
1+"
bx *"
bx )"
b11000000000000 ("
bx '"
bx &"
b11000000000100 %"
bx $"
bx #"
bx ""
bx !"
bx ~
x}
x|
x{
bx z
bx y
bx x
bx w
bx v
bx u
bx t
bx s
bx r
bx q
bx p
bx o
xn
xm
xl
xk
bx j
bx i
bx h
b0 g
bx f
bx e
bx d
bx c
bx b
bx a
bx `
bx _
bx ^
bx ]
bx \
bx [
bx Z
bx Y
bx X
bx W
bx V
bx U
bx T
xS
xR
xQ
xP
bx O
zN
xM
xL
bx K
bx J
bx I
bx 3
bx 2
bx 1
x0
bx /
x.
x-
x,
bx +
bx *
x)
x(
bx '
x&
x%
bx $
b0 #
1"
0!
$end
#10
0"
#20
x;"
x<"
1R
b0 =#
b0 <#
b0 r
b0 Z"
b0 }"
b0 _#
b0 #"
b0 R"
b0 _
b0 X"
b0 :#
b0 x#
0?"
b0 b
b0 Y"
b0 ;#
b0 y#
1%
0&
b1111 +
b1111 J
b1111 O
b1111 Q"
b1111 ]#
0-
1(
0,
00
0)
b0 Y
b0 W"
b0 `#
b0 j
b0 U"
b0 |"
b0 [
b0 V"
b0 $"
b0 x
b0 T"
b0 6#
b0 R#
b0 v#
b0 z
b0 S"
b0 5#
b0 Q#
b0 u#
b0 '
b0 2
b0 o
b0 $
b0 1
b0 f
b11000000000000 *
b11000000000000 3
b11000000000000 *"
b11000000000000 ["
b11000000000000 j"
b11000000000000 ^#
b0 h
b0 k"
x3"
02"
b11000000001000 0"
b11000000001000 m#
b11000000001000 n#
b11000000000100 ("
b11000000000100 i"
b11000000000100 N#
b11111111111111111111111111111111 g
b11111111111111111111111111111111 h"
b11111111111111111111111111111111 O#
b11000000001000 %"
b11000000001000 a#
b11000000001000 o#
b11000000000100 ,"
b11000000000100 M#
b11000000000100 p#
1!
b1 #
#40
0!
b10 #
#60
xR
bx =#
bx <#
b1111111111111111 r
b1111111111111111 Z"
b1111111111111111 }"
b1111111111111111 _#
b11111 #"
b11111 R"
bx _
bx X"
bx :#
bx x#
bx b
bx Y"
bx ;#
bx y#
0m
b11111111111111111111111111 Y
b11111111111111111111111111 W"
b11111111111111111111111111 `#
b1111111111111111 j
b1111111111111111 U"
b1111111111111111 |"
b11111 [
b11111 V"
b11111 $"
b11111 x
b11111 T"
b11111 6#
b11111 R#
b11111 v#
b11111 z
b11111 S"
b11111 5#
b11111 Q#
b11111 u#
b111111 '
b111111 2
b111111 o
b111111 $
b111111 1
b111111 f
01"
x2"
b11000000000000 )"
b11000000000000 G"
b11000000000000 ^"
b11000000000000 ~"
b11000000000100 *
b11000000000100 3
b11000000000100 *"
b11000000000100 ["
b11000000000100 j"
b11000000000100 ^#
b11111111111111111111111111111111 h
b11111111111111111111111111111111 k"
b11000000001100 0"
b11000000001100 m#
b11000000001100 n#
b11000000001000 ("
b11000000001000 i"
b11000000001000 N#
b111100000100010111111111111111 g
b111100000100010111111111111111 h"
b111100000100010111111111111111 O#
b11000000001100 %"
b11000000001100 a#
b11000000001100 o#
b11000000001000 ,"
b11000000001000 M#
b11000000001000 p#
1!
b11 #
#80
0!
b100 #
#100
b0 <#
b111111111111111 r
b111111111111111 Z"
b111111111111111 }"
b111111111111111 _#
b10001 #"
b10001 R"
b0 b
b0 Y"
b0 ;#
b0 y#
0%
b1111 /
b1111 I
b1111 K
b1111 P"
1.
10
1)
b100010111111111111111 Y
b100010111111111111111 W"
b100010111111111111111 `#
b111111111111111 j
b111111111111111 U"
b111111111111111 |"
b1111 $"
b10001 x
b10001 T"
b10001 6#
b10001 R#
b10001 v#
b0 z
b0 S"
b0 5#
b0 Q#
b0 u#
b1111 $
b1111 1
b1111 f
b11000000001000 *
b11000000001000 3
b11000000001000 *"
b11000000001000 ["
b11000000001000 j"
b11000000001000 ^#
b111100000100010111111111111111 h
b111100000100010111111111111111 k"
b11000000000100 )"
b11000000000100 G"
b11000000000100 ^"
b11000000000100 ~"
0l
b11000000000000 '"
b11000000000000 J"
b11000000000000 m"
x1"
b11000000010000 0"
b11000000010000 m#
b11000000010000 n#
b11000000001100 ("
b11000000001100 i"
b11000000001100 N#
b110110001100011111111111111111 g
b110110001100011111111111111111 h"
b110110001100011111111111111111 O#
b11000000010000 %"
b11000000010000 a#
b11000000010000 o#
b11000000001100 ,"
b11000000001100 M#
b11000000001100 p#
1!
b101 #
#120
0!
b110 #
#140
b0 `
b0 $#
b0 W#
0;"
0<"
bx <#
b1111111111111111 r
b1111111111111111 Z"
b1111111111111111 }"
b1111111111111111 _#
bx b
bx Y"
bx ;#
bx y#
0S
b1111111111111110000000000000000 e
b1111111111111110000000000000000 D"
b1111111111111110000000000000000 /#
b0 9"
b0 K#
b0 S#
0G#
0I#
b111111111111111 v
b111111111111111 ##
b111111111111111 2#
b100 /
b100 I
b100 K
b100 P"
0.
b10001100011111111111111111 Y
b10001100011111111111111111 W"
b10001100011111111111111111 `#
b1111111111111111 j
b1111111111111111 U"
b1111111111111111 |"
b11111 $"
b10001 z
b10001 S"
b10001 5#
b10001 Q#
b10001 u#
b1101 $
b1101 1
b1101 f
0k
b11000000000000 &"
b11000000000000 u"
b11000000000100 '"
b11000000000100 J"
b11000000000100 m"
b11000000001000 )"
b11000000001000 G"
b11000000001000 ^"
b11000000001000 ~"
b1111 @"
b1111 \"
b1111 !#
b111111111111111 s
b111111111111111 E"
b111111111111111 b"
b111111111111111 0#
0n
b0 a
b0 d"
b0 V#
b100010111111111111111 X
b100010111111111111111 B"
b100010111111111111111 g"
b111111111111111 i
b111111111111111 c"
b11111 Z
b11111 f"
b11111 "#
b10001 ""
b10001 F"
b10001 _"
b10001 3#
b10001 P#
b10001 w
b10001 a"
b10001 F#
b0 y
b0 `"
b0 E#
b1111 /"
b1111 H"
b1111 ]"
1:"
05"
1}
03"
1A"
b11000000001100 *
b11000000001100 3
b11000000001100 *"
b11000000001100 ["
b11000000001100 j"
b11000000001100 ^#
b110110001100011111111111111111 h
b110110001100011111111111111111 k"
b11000000010100 0"
b11000000010100 m#
b11000000010100 n#
b11000000010000 ("
b11000000010000 i"
b11000000010000 N#
b100010001100100000000000000001 g
b100010001100100000000000000001 h"
b100010001100100000000000000001 O#
b11000000010100 %"
b11000000010100 a#
b11000000010100 o#
b11000000010000 ,"
b11000000010000 M#
b11000000010000 p#
1!
b111 #
#160
0!
b1000 #
#180
b1111111111111110000000000000000 `
b1111111111111110000000000000000 $#
b1111111111111110000000000000000 W#
b1111111111111110000000000000000 \
b1111111111111110000000000000000 1#
b1111111111111110000000000000000 \#
b1 r
b1 Z"
b1 }"
b1 _#
b10010 #"
b10010 R"
b111 /
b111 I
b111 K
b111 P"
b10001100100000000000000001 Y
b10001100100000000000000001 W"
b10001100100000000000000001 `#
b1 j
b1 U"
b1 |"
b0 [
b0 V"
b0 $"
b10010 x
b10010 T"
b10010 6#
b10010 R#
b10010 v#
b1 '
b1 2
b1 o
b1000 $
b1000 1
b1000 f
b1111111111111111111111111111111 e
b1111111111111111111111111111111 D"
b1111111111111111111111111111111 /#
b1111111111111111 v
b1111111111111111 ##
b1111111111111111 2#
xR
bx =#
b1111111111111110000000000000000 <#
b1111111111111110000000000000000 T
b1111111111111110000000000000000 r"
b1111111111111110000000000000000 s#
0M
0="
1L
1>"
b10 8"
b10 L#
b10 X#
b10 9"
b10 K#
b10 S#
1H#
1G#
xI#
b11000000010000 *
b11000000010000 3
b11000000010000 *"
b11000000010000 ["
b11000000010000 j"
b11000000010000 ^#
b100010001100100000000000000001 h
b100010001100100000000000000001 k"
b11000000001100 )"
b11000000001100 G"
b11000000001100 ^"
b11000000001100 ~"
b100 @"
b100 \"
b100 !#
b1111111111111111 s
b1111111111111111 E"
b1111111111111111 b"
b1111111111111111 0#
bx a
bx d"
bx V#
b10001100011111111111111111 X
b10001100011111111111111111 B"
b10001100011111111111111111 g"
b1111111111111111 i
b1111111111111111 c"
b10001 y
b10001 `"
b10001 E#
0:"
b100010111111111111111 W
b100010111111111111111 O"
b100010111111111111111 q"
b1111111111111110000000000000000 d
b1111111111111110000000000000000 M"
b1111111111111110000000000000000 p"
b1111111111111110000000000000000 9#
b1111111111111110000000000000000 >#
b1111111111111110000000000000000 T#
b1111111111111110000000000000000 Y#
b1111111111111110000000000000000 q#
02"
0Q
04"
b1111 ."
b1111 I"
b1111 l"
1|
b11000000001000 '"
b11000000001000 J"
b11000000001000 m"
b10001 !"
b10001 K"
b10001 n"
b10001 4#
b10001 C#
b111111111111111 q
b111111111111111 L"
b111111111111111 o"
b11000000000100 &"
b11000000000100 u"
b11000000011000 0"
b11000000011000 m#
b11000000011000 n#
b11000000010100 ("
b11000000010100 i"
b11000000010100 N#
b10001100011000100000100000 g
b10001100011000100000100000 h"
b10001100011000100000100000 O#
b11000000011000 %"
b11000000011000 a#
b11000000011000 o#
b11000000010100 ,"
b11000000010100 M#
b11000000010100 p#
1!
b1001 #
#200
0!
b1010 #
#220
1m
b1111111111111111111111111111111 `
b1111111111111111111111111111111 $#
b1111111111111111111111111111111 W#
bx \
bx 1#
bx \#
b1111111111111110000000000000000 b
b1111111111111110000000000000000 Y"
b1111111111111110000000000000000 ;#
b1111111111111110000000000000000 y#
b1111111111111110000000000000000 _
b1111111111111110000000000000000 X"
b1111111111111110000000000000000 :#
b1111111111111110000000000000000 x#
b1000100000100000 r
b1000100000100000 Z"
b1000100000100000 }"
b1000100000100000 _#
b10001 #"
b10001 R"
1R
b1111111111111111111111111111111 =#
b1111111111111111111111111111111 <#
b1111111111111111111111111111111 T
b1111111111111111111111111111111 r"
b1111111111111111111111111111111 s#
b10000000000000000000000000000000 e
b10000000000000000000000000000000 D"
b10000000000000000000000000000000 /#
b1 v
b1 ##
b1 2#
1M
1="
b0 8"
b0 L#
b0 X#
0H#
0J#
1I#
b10 /
b10 I
b10 K
b10 P"
00
0)
b10001100011000100000100000 Y
b10001100011000100000100000 W"
b10001100011000100000100000 `#
b1000100000100000 j
b1000100000100000 U"
b1000100000100000 |"
b10001 $"
b10001 x
b10001 T"
b10001 6#
b10001 R#
b10001 v#
b100000 '
b100000 2
b100000 o
b0 $
b0 1
b0 f
b1111111111111110000000000000000 U
b1111111111111110000000000000000 {"
b1111111111111110000000000000000 U#
b1111111111111110000000000000000 Z#
b1111111111111110000000000000000 w#
b1111111111111110000000000000000 c
b1111111111111110000000000000000 y"
01"
b100010111111111111111 V
b100010111111111111111 z"
0P
b1111 -"
b1111 t"
1{
b11000000001000 &"
b11000000001000 u"
b10001 ~
b10001 v"
b10001 D#
b10001 t#
b111111111111111 p
b111111111111111 x"
b1111111111111110000000000000000 A#
b10001100011111111111111111 W
b10001100011111111111111111 O"
b10001100011111111111111111 q"
b1111111111111111111111111111111 d
b1111111111111111111111111111111 M"
b1111111111111111111111111111111 p"
b1111111111111111111111111111111 9#
b1111111111111111111111111111111 >#
b1111111111111111111111111111111 T#
b1111111111111111111111111111111 Y#
b1111111111111111111111111111111 q#
b11000000001100 '"
b11000000001100 J"
b11000000001100 m"
b1111111111111111 q
b1111111111111111 L"
b1111111111111111 o"
b11000000010000 )"
b11000000010000 G"
b11000000010000 ^"
b11000000010000 ~"
b111 @"
b111 \"
b111 !#
b1 s
b1 E"
b1 b"
b1 0#
b10001100100000000000000001 X
b10001100100000000000000001 B"
b10001100100000000000000001 g"
b1 i
b1 c"
b0 Z
b0 f"
b0 "#
b10010 ""
b10010 F"
b10010 _"
b10010 3#
b10010 P#
b10010 w
b10010 a"
b10010 F#
b11000000010100 *
b11000000010100 3
b11000000010100 *"
b11000000010100 ["
b11000000010100 j"
b11000000010100 ^#
b10001100011000100000100000 h
b10001100011000100000100000 k"
b11000000011100 0"
b11000000011100 m#
b11000000011100 n#
b11000000011000 ("
b11000000011000 i"
b11000000011000 N#
b100100000100010000000000000010 g
b100100000100010000000000000010 h"
b100100000100010000000000000010 O#
b11000000011100 %"
b11000000011100 a#
b11000000011100 o#
b11000000011000 ,"
b11000000011000 M#
b11000000011000 p#
1!
b1011 #
#240
0!
b1100 #
