testBench.vcd
$date
	Fri Nov 18 17:41:33 2022
$end
$version
	Icarus Verilog
$end
$timescale
	1ps
$end
$scope module Testbench $end
$var reg 1 ! clk $end
$var reg 1 " rst $end
$var integer 32 # cnt [31:0] $end
$scope module mips $end
$var wire 1 ! clk $end
$var wire 1 " rst $end
$var wire 6 $ op [5:0] $end
$var wire 1 % if_branch $end
$var wire 6 & func [5:0] $end
$var wire 1 ' RegWr $end
$var wire 1 ( RegDst $end
$var wire 4 ) NPCop [3:0] $end
$var wire 1 * MemtoReg $end
$var wire 1 + MemWr $end
$var wire 1 , ExtOp $end
$var wire 4 - ALUctr [3:0] $end
$var wire 1 . ALUSrc $end
$scope module controller $end
$var wire 6 / op [5:0] $end
$var wire 6 0 func [5:0] $end
$var parameter 4 1 ADD $end
$var parameter 4 2 ADD4 $end
$var parameter 4 3 ADDI $end
$var parameter 4 4 ADDIU $end
$var parameter 4 5 AND $end
$var parameter 4 6 BEQ $end
$var parameter 4 7 BGEZ $end
$var parameter 4 8 BGTZ $end
$var parameter 4 9 BLEZ $end
$var parameter 4 : BLTZ $end
$var parameter 4 ; BNE $end
$var parameter 4 < JAL $end
$var parameter 4 = JALR $end
$var parameter 4 > JR $end
$var parameter 4 ? JUMP $end
$var parameter 4 @ LUI $end
$var parameter 4 A OR $end
$var parameter 4 B ORI $end
$var parameter 4 C SLL $end
$var parameter 4 D SLT $end
$var parameter 4 E SUB $end
$var parameter 4 F XOR $end
$var reg 1 . ALUSrc $end
$var reg 4 G ALUctr [3:0] $end
$var reg 1 , ExtOp $end
$var reg 1 + MemWr $end
$var reg 1 * MemtoReg $end
$var reg 4 H NPCop [3:0] $end
$var reg 1 ( RegDst $end
$var reg 1 ' RegWr $end
$var reg 1 % if_branch $end
$upscope $end
$scope module datapath $end
$var wire 1 . ALUSrc $end
$var wire 4 I ALUctr [3:0] $end
$var wire 1 , ExtOp $end
$var wire 1 + MemWr $end
$var wire 1 * MemtoReg $end
$var wire 4 J NPCop [3:0] $end
$var wire 1 ( RegDst $end
$var wire 1 ' RegWr $end
$var wire 1 ! clk $end
$var wire 1 % if_branch $end
$var wire 1 " rst $end
$var wire 1 K zero_W $end
$var wire 1 L zero_M $end
$var wire 1 M zero $end
$var wire 32 N wd_W [31:0] $end
$var wire 32 O wd [31:0] $end
$var wire 26 P target_W [25:0] $end
$var wire 26 Q target_M [25:0] $end
$var wire 26 R target_E [25:0] $end
$var wire 26 S target [25:0] $end
$var wire 5 T shamt_E [4:0] $end
$var wire 5 U shamt [4:0] $end
$var wire 32 V rt_data_M [31:0] $end
$var wire 32 W rt_data_E [31:0] $end
$var wire 32 X rt_data [31:0] $end
$var wire 32 Y rs_data_E [31:0] $end
$var wire 32 Z rs_data [31:0] $end
$var wire 32 [ result_M [31:0] $end
$var wire 32 \ result [31:0] $end
$var wire 6 ] op [5:0] $end
$var wire 32 ^ instruction_F [31:0] $end
$var wire 32 _ instruction_D [31:0] $end
$var wire 16 ` imm16_E [15:0] $end
$var wire 16 a imm16 [15:0] $end
$var wire 1 b if_branch_E $end
$var wire 6 c func [5:0] $end
$var wire 32 d ext_result_W [31:0] $end
$var wire 32 e ext_result_M [31:0] $end
$var wire 32 f ext_result [31:0] $end
$var wire 32 g dout [31:0] $end
$var wire 32 h data [31:0] $end
$var wire 5 i Rt_W [4:0] $end
$var wire 5 j Rt_M [4:0] $end
$var wire 5 k Rt_E [4:0] $end
$var wire 5 l Rt [4:0] $end
$var wire 5 m Rs_E [4:0] $end
$var wire 5 n Rs [4:0] $end
$var wire 1 o RegWr_W $end
$var wire 1 p RegWr_M $end
$var wire 1 q RegWr_E $end
$var wire 1 r RegDst_W $end
$var wire 1 s RegDst_M $end
$var wire 1 t RegDst_E $end
$var wire 5 u Rd_W [4:0] $end
$var wire 5 v Rd_M [4:0] $end
$var wire 5 w Rd_E [4:0] $end
$var wire 5 x Rd [4:0] $end
$var wire 32 y PC_plus_4 [31:0] $end
$var wire 32 z PC_W [31:0] $end
$var wire 32 { PC_M [31:0] $end
$var wire 32 | PC_E [31:0] $end
$var wire 32 } PC_D [31:0] $end
$var wire 32 ~ PC [31:0] $end
$var wire 4 !" NPCop_W [3:0] $end
$var wire 4 "" NPCop_M [3:0] $end
$var wire 4 #" NPCop_E [3:0] $end
$var wire 32 $" NPC [31:0] $end
$var wire 1 %" MemtoReg_M $end
$var wire 1 &" MemtoReg_E $end
$var wire 1 '" MemWr_M $end
$var wire 1 (" MemWr_E $end
$var wire 1 )" ExtOp_E $end
$var wire 4 *" ALUctr_E [3:0] $end
$var wire 1 +" ALUSrc_E $end
$scope module Ex_Mem $end
$var wire 1 ! clk $end
$var wire 1 M zero $end
$var wire 26 ," target_E [25:0] $end
$var wire 32 -" rt_data [31:0] $end
$var wire 32 ." result [31:0] $end
$var wire 32 /" ext_result [31:0] $end
$var wire 5 0" Rt_E [4:0] $end
$var wire 1 q RegWr_E $end
$var wire 1 t RegDst_E $end
$var wire 5 1" Rd_E [4:0] $end
$var wire 32 2" PC_E [31:0] $end
$var wire 4 3" NPCop_E [3:0] $end
$var wire 1 &" MemtoReg_E $end
$var wire 1 (" MemWr_E $end
$var reg 1 '" MemWr_M $end
$var reg 1 %" MemtoReg_M $end
$var reg 4 4" NPCop_M [3:0] $end
$var reg 32 5" PC_M [31:0] $end
$var reg 5 6" Rd_M [4:0] $end
$var reg 1 s RegDst_M $end
$var reg 1 p RegWr_M $end
$var reg 5 7" Rt_M [4:0] $end
$var reg 32 8" ext_result_M [31:0] $end
$var reg 32 9" result_M [31:0] $end
$var reg 32 :" rt_data_M [31:0] $end
$var reg 26 ;" target_M [25:0] $end
$var reg 1 L zero_M $end
$upscope $end
$scope module Id_Ex $end
$var wire 1 . ALUSrc $end
$var wire 4 <" ALUctr [3:0] $end
$var wire 1 , ExtOp $end
$var wire 1 + MemWr $end
$var wire 1 * MemtoReg $end
$var wire 4 =" NPCop [3:0] $end
$var wire 5 >" Rd [4:0] $end
$var wire 1 ( RegDst $end
$var wire 1 ' RegWr $end
$var wire 5 ?" Rs [4:0] $end
$var wire 5 @" Rt [4:0] $end
$var wire 1 ! clk $end
$var wire 1 % if_branch $end
$var wire 16 A" imm16 [15:0] $end
$var wire 5 B" shamt [4:0] $end
$var wire 26 C" target [25:0] $end
$var wire 32 D" rt_data [31:0] $end
$var wire 32 E" rs_data [31:0] $end
$var wire 32 F" PC_D [31:0] $end
$var reg 1 +" ALUSrc_E $end
$var reg 4 G" ALUctr_E [3:0] $end
$var reg 1 )" ExtOp_E $end
$var reg 1 (" MemWr_E $end
$var reg 1 &" MemtoReg_E $end
$var reg 4 H" NPCop_E [3:0] $end
$var reg 32 I" PC_E [31:0] $end
$var reg 5 J" Rd_E [4:0] $end
$var reg 1 t RegDst_E $end
$var reg 1 q RegWr_E $end
$var reg 5 K" Rs_E [4:0] $end
$var reg 5 L" Rt_E [4:0] $end
$var reg 1 b if_branch_E $end
$var reg 16 M" imm16_E [15:0] $end
$var reg 32 N" rs_data_E [31:0] $end
$var reg 32 O" rt_data_E [31:0] $end
$var reg 5 P" shamt_E [4:0] $end
$var reg 26 Q" target_E [25:0] $end
$upscope $end
$scope module If_Id $end
$var wire 1 ! clk $end
$var wire 32 R" instruction_F [31:0] $end
$var wire 32 S" PC [31:0] $end
$var reg 32 T" PC_D [31:0] $end
$var reg 32 U" instruction_D [31:0] $end
$upscope $end
$scope module Mem_Wb $end
$var wire 4 V" NPCop_M [3:0] $end
$var wire 32 W" PC_M [31:0] $end
$var wire 5 X" Rd_M [4:0] $end
$var wire 1 s RegDst_M $end
$var wire 1 p RegWr_M $end
$var wire 5 Y" Rt_M [4:0] $end
$var wire 1 ! clk $end
$var wire 32 Z" ext_result_M [31:0] $end
$var wire 26 [" target_M [25:0] $end
$var wire 1 L zero_M $end
$var wire 32 \" wd [31:0] $end
$var reg 4 ]" NPCop_W [3:0] $end
$var reg 32 ^" PC_W [31:0] $end
$var reg 5 _" Rd_W [4:0] $end
$var reg 1 r RegDst_W $end
$var reg 1 o RegWr_W $end
$var reg 5 `" Rt_W [4:0] $end
$var reg 32 a" ext_result_W [31:0] $end
$var reg 26 b" target_W [25:0] $end
$var reg 32 c" wd_W [31:0] $end
$var reg 1 K zero_W $end
$upscope $end
$scope module SignExt $end
$var wire 1 )" ext_op $end
$var wire 1 b if_branch $end
$var wire 16 d" imm [15:0] $end
$var reg 32 e" ext_result [31:0] $end
$upscope $end
$scope module alu $end
$var wire 32 f" a [31:0] $end
$var wire 4 g" alu_ctrl [3:0] $end
$var wire 5 h" shamt [4:0] $end
$var wire 1 M zero $end
$var wire 32 i" b [31:0] $end
$var parameter 4 j" ADD $end
$var parameter 4 k" ADDI $end
$var parameter 4 l" ADDIU $end
$var parameter 4 m" AND $end
$var parameter 4 n" LUI $end
$var parameter 4 o" OR $end
$var parameter 4 p" ORI $end
$var parameter 4 q" SLL $end
$var parameter 4 r" SLT $end
$var parameter 4 s" SUB $end
$var parameter 4 t" XOR $end
$var reg 32 u" result [31:0] $end
$upscope $end
$scope module aluMux $end
$var wire 1 +" ALUSrc $end
$var wire 32 v" Ext_result [31:0] $end
$var wire 32 w" Rt_data [31:0] $end
$var reg 32 x" Data [31:0] $end
$upscope $end
$scope module dm $end
$var wire 32 y" addr [31:0] $end
$var wire 1 ! clk $end
$var wire 32 z" din [31:0] $end
$var wire 32 {" dout [31:0] $end
$var wire 1 '" we $end
$upscope $end
$scope module im $end
$var wire 32 |" pc [31:0] $end
$var reg 32 }" dout [31:0] $end
$upscope $end
$scope module npc $end
$var wire 4 ~" NPCop [3:0] $end
$var wire 32 !# PC [31:0] $end
$var wire 32 "# PC_plus_4 [31:0] $end
$var wire 32 ## ext_result [31:0] $end
$var wire 26 $# target [25:0] $end
$var wire 1 K zero $end
$var parameter 4 %# ADD4 $end
$var parameter 4 &# BEQ $end
$var parameter 4 '# BGEZ $end
$var parameter 4 (# BGTZ $end
$var parameter 4 )# BLEZ $end
$var parameter 4 *# BLTZ $end
$var parameter 4 +# BNE $end
$var parameter 4 ,# JAL $end
$var parameter 4 -# JALR $end
$var parameter 4 .# JR $end
$var parameter 4 /# JUMP $end
$var reg 32 0# NPC [31:0] $end
$upscope $end
$scope module pc $end
$var wire 1 ! clk $end
$var wire 32 1# npc [31:0] $end
$var wire 1 " rst $end
$var reg 32 2# pc [31:0] $end
$upscope $end
$scope module regMux $end
$var wire 32 3# ALUoutput [31:0] $end
$var wire 32 4# MEMouput [31:0] $end
$var wire 1 %" MemtoReg $end
$var reg 32 5# Data [31:0] $end
$upscope $end
$scope module regfile $end
$var wire 1 r RegDst $end
$var wire 1 ! clk $end
$var wire 5 6# rd_W [4:0] $end
$var wire 5 7# rs [4:0] $end
$var wire 5 8# rt [4:0] $end
$var wire 5 9# rt_W [4:0] $end
$var wire 32 :# wd [31:0] $end
$var wire 1 o wr $end
$var wire 32 ;# rt_data [31:0] $end
$var wire 32 <# rs_data [31:0] $end
$var reg 5 =# addr [4:0] $end
$var integer 32 ># i [31:0] $end
$upscope $end
$upscope $end
$upscope $end
$upscope $end
$enddefinitions $end
$comment Show the parameter values. $end
$dumpall
b0 /#
b1000 .#
b1000 -#
b1 ,#
b11 +#
b111 *#
b110 )#
b101 (#
b100 '#
b10 &#
b1111 %#
b11 t"
b110 s"
b1001 r"
b1000 q"
b100 p"
b1 o"
b1111 n"
b0 m"
b101 l"
b111 k"
b10 j"
b11 F
b110 E
b1001 D
b1000 C
b100 B
b1 A
b1111 @
b0 ?
b1000 >
b1000 =
b1 <
b11 ;
b111 :
b110 9
b101 8
b100 7
b10 6
b0 5
b101 4
b111 3
b1111 2
b10 1
$end
#0
$dumpvars
b100000 >#
bx =#
bx <#
bx ;#
bx :#
bx 9#
bx 8#
bx 7#
bx 6#
bx 5#
bx 4#
bx 3#
b11000000000000 2#
b11000000000100 1#
b11000000000100 0#
bx $#
bx ##
b11000000000100 "#
bx !#
bx ~"
b100100000100010000000000000010 }"
b11000000000000 |"
bx {"
bx z"
bx y"
bx x"
bx w"
bx v"
bx u"
bx i"
bx h"
bx g"
bx f"
bx e"
bx d"
bx c"
bx b"
bx a"
bx `"
bx _"
bx ^"
bx ]"
bx \"
bx ["
bx Z"
bx Y"
bx X"
bx W"
bx V"
bx U"
bx T"
b11000000000000 S"
b100100000100010000000000000010 R"
bx Q"
bx P"
bx O"
bx N"
bx M"
bx L"
bx K"
bx J"
bx I"
bx H"
bx G"
bx F"
bx E"
bx D"
bx C"
bx B"
bx A"
bx @"
bx ?"
bx >"
bx ="
bx <"
bx ;"
bx :"
bx 9"
bx 8"
bx 7"
bx 6"
bx 5"
bx 4"
bx 3"
bx 2"
bx 1"
bx 0"
bx /"
bx ."
bx -"
bx ,"
x+"
bx *"
x)"
x("
x'"
x&"
x%"
b11000000000100 $"
bx #"
bx ""
bx !"
b11000000000000 ~
bx }
bx |
bx {
bx z
b11000000000100 y
bx x
bx w
bx v
bx u
xt
xs
xr
xq
xp
xo
bx n
bx m
bx l
bx k
bx j
bx i
bx h
bx g
bx f
bx e
bx d
bx c
xb
bx a
bx `
bx _
b100100000100010000000000000010 ^
bx ]
bx \
bx [
bx Z
bx Y
bx X
bx W
bx V
bx U
bx T
bx S
bx R
bx Q
bx P
bx O
bx N
xM
xL
xK
bx J
bx I
bx H
bx G
bx 0
bx /
x.
bx -
x,
x+
x*
bx )
x(
x'
bx &
x%
bx $
b0 #
1"
0!
$end
#10
0"
#20
b0 X
b0 D"
b0 ;#
b0 Z
b0 E"
b0 <#
0%
b101 -
b101 G
b101 I
b101 <"
1,
b1111 )
b1111 H
b1111 J
b1111 ="
0+
1'
0*
1.
1(
b100010000000000000010 S
b100010000000000000010 C"
b10 a
b10 A"
b0 U
b0 B"
b0 x
b0 >"
b10001 l
b10001 @"
b10001 8#
b0 n
b0 ?"
b0 7#
b10 &
b10 0
b10 c
b1001 $
b1001 /
b1001 ]
b11000000000100 }
b11000000000100 F"
b11000000000100 T"
b100100000100010000000000000010 _
b100100000100010000000000000010 U"
b11000000001000 $"
b11000000001000 0#
b11000000001000 1#
b100100000100100000000000000001 ^
b100100000100100000000000000001 R"
b100100000100100000000000000001 }"
b11000000001000 y
b11000000001000 "#
b11000000000100 ~
b11000000000100 S"
b11000000000100 |"
b11000000000100 2#
1!
b1 #
#40
0!
b10 #
#60
0M
b10 \
b10 ."
b10 u"
b10 h
b10 i"
b10 x"
b10 f
b10 /"
b10 e"
b10 v"
b100100000000000000001 S
b100100000000000000001 C"
b1 a
b1 A"
b10010 l
b10010 @"
b10010 8#
b1 &
b1 0
b1 c
0b
b0 W
b0 -"
b0 O"
b0 w"
b0 Y
b0 N"
b0 f"
b11000000000100 |
b11000000000100 2"
b11000000000100 I"
b100010000000000000010 R
b100010000000000000010 ,"
b100010000000000000010 Q"
b10 `
b10 M"
b10 d"
b0 T
b0 P"
b0 h"
b0 w
b0 1"
b0 J"
b10001 k
b10001 0"
b10001 L"
b0 m
b0 K"
b1111 #"
b1111 3"
b1111 H"
b101 *"
b101 G"
b101 g"
1)"
0("
1q
0&"
1+"
1t
b11000000001000 }
b11000000001000 F"
b11000000001000 T"
b100100000100100000000000000001 _
b100100000100100000000000000001 U"
b11000000001100 $"
b11000000001100 0#
b11000000001100 1#
b100000000100010000000000000001 ^
b100000000100010000000000000001 R"
b100000000100010000000000000001 }"
b11000000001100 y
b11000000001100 "#
b11000000001000 ~
b11000000001000 S"
b11000000001000 |"
b11000000001000 2#
1!
b11 #
#80
0!
b100 #
#100
b1 \
b1 ."
b1 u"
b111 -
b111 G
b111 I
b111 <"
0,
b1 h
b1 i"
b1 x"
b100010000000000000001 S
b100010000000000000001 C"
b10001 l
b10001 @"
b10001 8#
b1000 $
b1000 /
b1000 ]
b1 f
b1 /"
b1 e"
b1 v"
b10 O
b10 \"
b10 5#
b11000000001100 }
b11000000001100 F"
b11000000001100 T"
b100000000100010000000000000001 _
b100000000100010000000000000001 U"
b11000000001000 |
b11000000001000 2"
b11000000001000 I"
b100100000000000000001 R
b100100000000000000001 ,"
b100100000000000000001 Q"
b1 `
b1 M"
b1 d"
b10010 k
b10010 0"
b10010 L"
b100010000000000000010 Q
b100010000000000000010 ;"
b100010000000000000010 ["
b10001 j
b10001 7"
b10001 Y"
1s
b1 g
b1 {"
b1 4#
b10 [
b10 9"
b10 y"
b10 3#
0%"
b0 V
b0 :"
b0 z"
0L
0'"
b1111 ""
b1111 4"
b1111 V"
1p
b11000000000100 {
b11000000000100 5"
b11000000000100 W"
b0 v
b0 6"
b0 X"
b10 e
b10 8"
b10 Z"
b11000000010000 $"
b11000000010000 0#
b11000000010000 1#
b100000000100100000000000000010 ^
b100000000100100000000000000010 R"
b100000000100100000000000000010 }"
b11000000010000 y
b11000000010000 "#
b11000000001100 ~
b11000000001100 S"
b11000000001100 |"
b11000000001100 2#
1!
b101 #
#120
0!
b110 #
#140
b1 O
b1 \"
b1 5#
b100100000000000000010 S
b100100000000000000010 C"
b10 a
b10 A"
b10010 l
b10010 @"
b10010 8#
b10 &
b10 0
b10 c
b100010000000000000010 P
b100010000000000000010 b"
b100010000000000000010 $#
b10001 i
b10001 `"
b10001 9#
1r
b10 N
b10 c"
b10 :#
0K
b1111 !"
b1111 ]"
b1111 ~"
1o
b11000000000100 z
b11000000000100 ^"
b11000000000100 !#
b0 u
b0 _"
b0 6#
b10 d
b10 a"
b10 ##
b100100000000000000001 Q
b100100000000000000001 ;"
b100100000000000000001 ["
b10010 j
b10010 7"
b10010 Y"
b11 g
b11 {"
b11 4#
b1 [
b1 9"
b1 y"
b1 3#
b11000000001000 {
b11000000001000 5"
b11000000001000 W"
b1 e
b1 8"
b1 Z"
b11000000001100 |
b11000000001100 2"
b11000000001100 I"
b100010000000000000001 R
b100010000000000000001 ,"
b100010000000000000001 Q"
b10001 k
b10001 0"
b10001 L"
b111 *"
b111 G"
b111 g"
0)"
b11000000010000 }
b11000000010000 F"
b11000000010000 T"
b100000000100100000000000000010 _
b100000000100100000000000000010 U"
b11000000010100 $"
b11000000010100 0#
b11000000010100 1#
b10001100101001100000100000 ^
b10001100101001100000100000 R"
b10001100101001100000100000 }"
b11000000010100 y
b11000000010100 "#
b11000000010000 ~
b11000000010000 S"
b11000000010000 |"
b11000000010000 2#
1!
b111 #
#160
0!
b1000 #
#180
b10 \
b10 ."
b10 u"
b10 Z
b10 E"
b10 <#
b10 -
b10 G
b10 I
b10 <"
0.
0(
b10 h
b10 i"
b10 x"
b10001100101001100000100000 S
b10001100101001100000100000 C"
b1001100000100000 a
b1001100000100000 A"
b10011 x
b10011 >"
b10001 n
b10001 ?"
b10001 7#
b100000 &
b100000 0
b100000 c
b0 $
b0 /
b0 ]
b10 f
b10 /"
b10 e"
b10 v"
b11000000010100 }
b11000000010100 F"
b11000000010100 T"
b10001100101001100000100000 _
b10001100101001100000100000 U"
b11000000010000 |
b11000000010000 2"
b11000000010000 I"
b100100000000000000010 R
b100100000000000000010 ,"
b100100000000000000010 Q"
b10 `
b10 M"
b10 d"
b10010 k
b10010 0"
b10010 L"
b100010000000000000001 Q
b100010000000000000001 ;"
b100010000000000000001 ["
b10001 j
b10001 7"
b10001 Y"
b11000000001100 {
b11000000001100 5"
b11000000001100 W"
b100100000000000000001 P
b100100000000000000001 b"
b100100000000000000001 $#
b10010 i
b10010 `"
b10010 9#
b1 N
b1 c"
b1 :#
b11000000001000 z
b11000000001000 ^"
b11000000001000 !#
b1 d
b1 a"
b1 ##
b11000000011000 $"
b11000000011000 0#
b11000000011000 1#
b10010100011001100000100010 ^
b10010100011001100000100010 R"
b10010100011001100000100010 }"
b10001 =#
b11000000011000 y
b11000000011000 "#
b11000000010100 ~
b11000000010100 S"
b11000000010100 |"
b11000000010100 2#
1!
b1001 #
#200
0!
b1010 #
#220
b1 Z
b1 E"
b1 <#
b110 -
b110 G
b110 I
b110 <"
b10 O
b10 \"
b10 5#
b1001100000100000 f
b1001100000100000 /"
b1001100000100000 e"
b1001100000100000 v"
b0 h
b0 i"
b0 x"
b10010100011001100000100010 S
b10010100011001100000100010 C"
b1001100000100010 a
b1001100000100010 A"
b10001 l
b10001 @"
b10001 8#
b10010 n
b10010 ?"
b10010 7#
b100010 &
b100010 0
b100010 c
b100010000000000000001 P
b100010000000000000001 b"
b100010000000000000001 $#
b10001 i
b10001 `"
b10001 9#
b11000000001100 z
b11000000001100 ^"
b11000000001100 !#
b100100000000000000010 Q
b100100000000000000010 ;"
b100100000000000000010 ["
b10010 j
b10010 7"
b10010 Y"
b1 g
b1 {"
b1 4#
b10 [
b10 9"
b10 y"
b10 3#
b11000000010000 {
b11000000010000 5"
b11000000010000 W"
b10 e
b10 8"
b10 Z"
b10 Y
b10 N"
b10 f"
b11000000010100 |
b11000000010100 2"
b11000000010100 I"
b10001100101001100000100000 R
b10001100101001100000100000 ,"
b10001100101001100000100000 Q"
b1001100000100000 `
b1001100000100000 M"
b1001100000100000 d"
b10011 w
b10011 1"
b10011 J"
b10001 m
b10001 K"
b10 *"
b10 G"
b10 g"
0+"
0t
b11000000011000 }
b11000000011000 F"
b11000000011000 T"
b10010100011001100000100010 _
b10010100011001100000100010 U"
b10 X
b10 D"
b10 ;#
b11000000011100 $"
b11000000011100 0#
b11000000011100 1#
b10001100101001100000100100 ^
b10001100101001100000100100 R"
b10001100101001100000100100 }"
b10010 =#
b11000000011100 y
b11000000011100 "#
b11000000011000 ~
b11000000011000 S"
b11000000011000 |"
b11000000011000 2#
1!
b1011 #
#240
0!
b1100 #
#260
b0 -
b0 G
b0 I
b0 <"
b10001100101001100000100100 S
b10001100101001100000100100 C"
b1001100000100100 a
b1001100000100100 A"
b10010 l
b10010 @"
b10010 8#
b10001 n
b10001 ?"
b10001 7#
b100100 &
b100100 0
b100100 c
b10 h
b10 i"
b10 x"
b1001100000100010 f
b1001100000100010 /"
b1001100000100010 e"
b1001100000100010 v"
b11111111111111111111111111111111 \
b11111111111111111111111111111111 ."
b11111111111111111111111111111111 u"
b11000000011100 }
b11000000011100 F"
b11000000011100 T"
b10001100101001100000100100 _
b10001100101001100000100100 U"
b10 W
b10 -"
b10 O"
b10 w"
b1 Y
b1 N"
b1 f"
b11000000011000 |
b11000000011000 2"
b11000000011000 I"
b10010100011001100000100010 R
b10010100011001100000100010 ,"
b10010100011001100000100010 Q"
b1001100000100010 `
b1001100000100010 M"
b1001100000100010 d"
b10001 k
b10001 0"
b10001 L"
b10010 m
b10010 K"
b110 *"
b110 G"
b110 g"
b10001100101001100000100000 Q
b10001100101001100000100000 ;"
b10001100101001100000100000 ["
0s
b11000000010100 {
b11000000010100 5"
b11000000010100 W"
b10011 v
b10011 6"
b10011 X"
b1001100000100000 e
b1001100000100000 8"
b1001100000100000 Z"
b100100000000000000010 P
b100100000000000000010 b"
b100100000000000000010 $#
b10010 i
b10010 `"
b10010 9#
b10 N
b10 c"
b10 :#
b11000000010000 z
b11000000010000 ^"
b11000000010000 !#
b10 d
b10 a"
b10 ##
b1 X
b1 D"
b1 ;#
b11000000100000 $"
b11000000100000 0#
b11000000100000 1#
b10001100101001100000100101 ^
b10001100101001100000100101 R"
b10001100101001100000100101 }"
b10001 =#
b11000000100000 y
b11000000100000 "#
b11000000011100 ~
b11000000011100 S"
b11000000011100 |"
b11000000011100 2#
1!
b1101 #
#280
0!
b1110 #
#300
b1 -
b1 G
b1 I
b1 <"
b11111111111111111111111111111111 O
b11111111111111111111111111111111 \"
b11111111111111111111111111111111 5#
b1 h
b1 i"
b1 x"
b1001100000100100 f
b1001100000100100 /"
b1001100000100100 e"
b1001100000100100 v"
0M
b1 \
b1 ."
b1 u"
b10001100101001100000100101 S
b10001100101001100000100101 C"
b1001100000100101 a
b1001100000100101 A"
b100101 &
b100101 0
b100101 c
b10001100101001100000100000 P
b10001100101001100000100000 b"
b10001100101001100000100000 $#
0r
b11000000010100 z
b11000000010100 ^"
b11000000010100 !#
b10011 u
b10011 _"
b10011 6#
b1001100000100000 d
b1001100000100000 a"
b1001100000100000 ##
b10010100011001100000100010 Q
b10010100011001100000100010 ;"
b10010100011001100000100010 ["
b10001 j
b10001 7"
b10001 Y"
bx g
bx {"
bx 4#
b11111111111111111111111111111111 [
b11111111111111111111111111111111 9"
b11111111111111111111111111111111 y"
b11111111111111111111111111111111 3#
b10 V
b10 :"
b10 z"
b11000000011000 {
b11000000011000 5"
b11000000011000 W"
b1001100000100010 e
b1001100000100010 8"
b1001100000100010 Z"
b1 W
b1 -"
b1 O"
b1 w"
b11000000011100 |
b11000000011100 2"
b11000000011100 I"
b10001100101001100000100100 R
b10001100101001100000100100 ,"
b10001100101001100000100100 Q"
b1001100000100100 `
b1001100000100100 M"
b1001100000100100 d"
b10010 k
b10010 0"
b10010 L"
b10001 m
b10001 K"
b0 *"
b0 G"
b0 g"
b11000000100000 }
b11000000100000 F"
b11000000100000 T"
b10001100101001100000100101 _
b10001100101001100000100101 U"
b10 X
b10 D"
b10 ;#
b11000000100100 $"
b11000000100100 0#
b11000000100100 1#
b110110001100110000000000000101 ^
b110110001100110000000000000101 R"
b110110001100110000000000000101 }"
b10010 =#
b11000000100100 y
b11000000100100 "#
b11000000100000 ~
b11000000100000 S"
b11000000100000 |"
b11000000100000 2#
1!
b1111 #
#320
0!
b10000 #
#340
b100 -
b100 G
b100 I
b100 <"
1.
1(
b11 \
b11 ."
b11 u"
b10001100110000000000000101 S
b10001100110000000000000101 C"
b101 a
b101 A"
b0 x
b0 >"
b10011 l
b10011 @"
b10011 8#
b101 &
b101 0
b101 c
b1101 $
b1101 /
b1101 ]
b10 h
b10 i"
b10 x"
b1001100000100101 f
b1001100000100101 /"
b1001100000100101 e"
b1001100000100101 v"
b1 O
b1 \"
b1 5#
b11000000100100 }
b11000000100100 F"
b11000000100100 T"
b110110001100110000000000000101 _
b110110001100110000000000000101 U"
b10 W
b10 -"
b10 O"
b10 w"
b11000000100000 |
b11000000100000 2"
b11000000100000 I"
b10001100101001100000100101 R
b10001100101001100000100101 ,"
b10001100101001100000100101 Q"
b1001100000100101 `
b1001100000100101 M"
b1001100000100101 d"
b1 *"
b1 G"
b1 g"
b10001100101001100000100100 Q
b10001100101001100000100100 ;"
b10001100101001100000100100 ["
b10010 j
b10010 7"
b10010 Y"
b11 g
b11 {"
b11 4#
b1 [
b1 9"
b1 y"
b1 3#
b1 V
b1 :"
b1 z"
b11000000011100 {
b11000000011100 5"
b11000000011100 W"
b1001100000100100 e
b1001100000100100 8"
b1001100000100100 Z"
b10010100011001100000100010 P
b10010100011001100000100010 b"
b10010100011001100000100010 $#
b10001 i
b10001 `"
b10001 9#
b11111111111111111111111111111111 N
b11111111111111111111111111111111 c"
b11111111111111111111111111111111 :#
b11000000011000 z
b11000000011000 ^"
b11000000011000 !#
b1001100000100010 d
b1001100000100010 a"
b1001100000100010 ##
b11000000101000 $"
b11000000101000 0#
b11000000101000 1#
b10001100101001100000100110 ^
b10001100101001100000100110 R"
b10001100101001100000100110 }"
b10011 =#
b11000000101000 y
b11000000101000 "#
b11000000100100 ~
b11000000100100 S"
b11000000100100 |"
b11000000100100 2#
1!
b10001 #
#360
0!
b10010 #
#380
b11 -
b11 G
b11 I
b11 <"
0.
0(
b11 O
b11 \"
b11 5#
b101 f
b101 /"
b101 e"
b101 v"
b101 \
b101 ."
b101 u"
b101 h
b101 i"
b101 x"
b10001100101001100000100110 S
b10001100101001100000100110 C"
b1001100000100110 a
b1001100000100110 A"
b10011 x
b10011 >"
b10010 l
b10010 @"
b10010 8#
b100110 &
b100110 0
b100110 c
b0 $
b0 /
b0 ]
b10001100101001100000100100 P
b10001100101001100000100100 b"
b10001100101001100000100100 $#
b10010 i
b10010 `"
b10010 9#
b1 N
b1 c"
b1 :#
b11000000011100 z
b11000000011100 ^"
b11000000011100 !#
b1001100000100100 d
b1001100000100100 a"
b1001100000100100 ##
b10001100101001100000100101 Q
b10001100101001100000100101 ;"
b10001100101001100000100101 ["
b110 g
b110 {"
b110 4#
b11 [
b11 9"
b11 y"
b11 3#
b10 V
b10 :"
b10 z"
b11000000100000 {
b11000000100000 5"
b11000000100000 W"
b1001100000100101 e
b1001100000100101 8"
b1001100000100101 Z"
b11000000100100 |
b11000000100100 2"
b11000000100100 I"
b10001100110000000000000101 R
b10001100110000000000000101 ,"
b10001100110000000000000101 Q"
b101 `
b101 M"
b101 d"
b0 w
b0 1"
b0 J"
b10011 k
b10011 0"
b10011 L"
b100 *"
b100 G"
b100 g"
1+"
1t
b11000000101000 }
b11000000101000 F"
b11000000101000 T"
b10001100101001100000100110 _
b10001100101001100000100110 U"
b10 X
b10 D"
b10 ;#
b11000000101100 $"
b11000000101100 0#
b11000000101100 1#
b10001100101001100000101010 ^
b10001100101001100000101010 R"
b10001100101001100000101010 }"
b11000000101100 y
b11000000101100 "#
b11000000101000 ~
b11000000101000 S"
b11000000101000 |"
b11000000101000 2#
1!
b10011 #
#400
0!
b10100 #
