testBench.vcd
$date
	Wed Nov 30 12:01:26 2022
$end
$version
	Icarus Verilog
$end
$timescale
	1ps
$end
$scope module Testbench $end
$var reg 1 ! clk $end
$var reg 1 " rst $end
$var integer 32 # cnt [31:0] $end
$scope module mips $end
$var wire 1 ! clk $end
$var wire 1 " rst $end
$var wire 6 $ op [5:0] $end
$var wire 1 % if_branch $end
$var wire 6 & func [5:0] $end
$var wire 1 ' RegWr $end
$var wire 1 ( RegDst $end
$var wire 4 ) NPCop [3:0] $end
$var wire 1 * MemtoReg $end
$var wire 1 + MemWr $end
$var wire 1 , ExtOp $end
$var wire 4 - ALUctr [3:0] $end
$var wire 1 . ALUSrc $end
$scope module controller $end
$var wire 6 / op [5:0] $end
$var wire 6 0 func [5:0] $end
$var parameter 4 1 ADD $end
$var parameter 4 2 ADD4 $end
$var parameter 4 3 ADDI $end
$var parameter 4 4 ADDIU $end
$var parameter 4 5 AND $end
$var parameter 4 6 BEQ $end
$var parameter 4 7 BGEZ $end
$var parameter 4 8 BGTZ $end
$var parameter 4 9 BLEZ $end
$var parameter 4 : BLTZ $end
$var parameter 4 ; BNE $end
$var parameter 4 < JAL $end
$var parameter 4 = JALR $end
$var parameter 4 > JR $end
$var parameter 4 ? JUMP $end
$var parameter 4 @ LUI $end
$var parameter 4 A OR $end
$var parameter 4 B ORI $end
$var parameter 4 C SLL $end
$var parameter 4 D SLT $end
$var parameter 4 E SUB $end
$var parameter 4 F XOR $end
$var reg 1 . ALUSrc $end
$var reg 4 G ALUctr [3:0] $end
$var reg 1 , ExtOp $end
$var reg 1 + MemWr $end
$var reg 1 * MemtoReg $end
$var reg 4 H NPCop [3:0] $end
$var reg 1 ( RegDst $end
$var reg 1 ' RegWr $end
$var reg 1 % if_branch $end
$upscope $end
$scope module datapath $end
$var wire 1 . ALUSrc $end
$var wire 4 I ALUctr [3:0] $end
$var wire 1 J C_L_DE_Rs $end
$var wire 1 K C_L_DE_Rt $end
$var wire 1 L C_R_EM_Rs $end
$var wire 1 M C_R_EM_Rt $end
$var wire 1 N C_R_EW_Rs $end
$var wire 1 O C_R_EW_Rt $end
$var wire 1 , ExtOp $end
$var wire 1 P ID_Ex_flush $end
$var wire 1 Q IF_ID_wr $end
$var wire 1 + MemWr $end
$var wire 1 * MemtoReg $end
$var wire 4 R NPCop [3:0] $end
$var wire 1 S PCEnF $end
$var wire 1 ( RegDst $end
$var wire 1 ' RegWr $end
$var wire 1 ! clk $end
$var wire 1 % if_branch $end
$var wire 1 " rst $end
$var wire 1 T zero_W $end
$var wire 1 U zero_M $end
$var wire 1 V zero $end
$var wire 32 W wd [31:0] $end
$var wire 26 X target_W [25:0] $end
$var wire 26 Y target_M [25:0] $end
$var wire 26 Z target_E [25:0] $end
$var wire 26 [ target [25:0] $end
$var wire 5 \ shamt_E [4:0] $end
$var wire 5 ] shamt [4:0] $end
$var wire 32 ^ rt_data_final [31:0] $end
$var wire 32 _ rt_data_M [31:0] $end
$var wire 32 ` rt_data_E [31:0] $end
$var wire 32 a rt_data [31:0] $end
$var wire 32 b rs_data_final [31:0] $end
$var wire 32 c rs_data_E [31:0] $end
$var wire 32 d rs_data [31:0] $end
$var wire 32 e result_W [31:0] $end
$var wire 32 f result_M [31:0] $end
$var wire 32 g result [31:0] $end
$var wire 6 h op [5:0] $end
$var wire 32 i instruction_F [31:0] $end
$var wire 32 j instruction_D [31:0] $end
$var wire 16 k imm16_E [15:0] $end
$var wire 16 l imm16 [15:0] $end
$var wire 1 m if_branch_E $end
$var wire 6 n func [5:0] $end
$var wire 32 o ext_result_W [31:0] $end
$var wire 32 p ext_result_M [31:0] $end
$var wire 32 q ext_result [31:0] $end
$var wire 32 r dout_W [31:0] $end
$var wire 32 s dout [31:0] $end
$var wire 32 t data [31:0] $end
$var wire 5 u Rt_E [4:0] $end
$var wire 5 v Rt [4:0] $end
$var wire 5 w Rs_E [4:0] $end
$var wire 5 x Rs [4:0] $end
$var wire 1 y RegWr_W $end
$var wire 1 z RegWr_M $end
$var wire 1 { RegWr_E $end
$var wire 5 | RegWrDst_W [4:0] $end
$var wire 5 } RegWrDst_M [4:0] $end
$var wire 5 ~ RegWrDst_E [4:0] $end
$var wire 5 !" RegWrDst [4:0] $end
$var wire 5 "" Rd [4:0] $end
$var wire 32 #" PC_plus_4 [31:0] $end
$var wire 32 $" PC_W [31:0] $end
$var wire 32 %" PC_M [31:0] $end
$var wire 32 &" PC_E [31:0] $end
$var wire 32 '" PC_D [31:0] $end
$var wire 32 (" PC [31:0] $end
$var wire 4 )" NPCop_W [3:0] $end
$var wire 4 *" NPCop_M [3:0] $end
$var wire 4 +" NPCop_E [3:0] $end
$var wire 32 ," NPC [31:0] $end
$var wire 1 -" MemtoReg_W $end
$var wire 1 ." MemtoReg_M $end
$var wire 1 /" MemtoReg_E $end
$var wire 1 0" MemWr_M $end
$var wire 1 1" MemWr_E $end
$var wire 2 2" Forward_RTE [1:0] $end
$var wire 2 3" Forward_RSE [1:0] $end
$var wire 1 4" ExtOp_E $end
$var wire 4 5" ALUctr_E [3:0] $end
$var wire 1 6" ALUSrc_E $end
$scope module Ex_Mem $end
$var wire 1 ! clk $end
$var wire 1 V zero $end
$var wire 26 7" target_E [25:0] $end
$var wire 32 8" rt_data [31:0] $end
$var wire 32 9" result [31:0] $end
$var wire 32 :" ext_result [31:0] $end
$var wire 1 { RegWr_E $end
$var wire 5 ;" RegWrDst_E [4:0] $end
$var wire 32 <" PC_E [31:0] $end
$var wire 4 =" NPCop_E [3:0] $end
$var wire 1 /" MemtoReg_E $end
$var wire 1 1" MemWr_E $end
$var reg 1 0" MemWr_M $end
$var reg 1 ." MemtoReg_M $end
$var reg 4 >" NPCop_M [3:0] $end
$var reg 32 ?" PC_M [31:0] $end
$var reg 5 @" RegWrDst_M [4:0] $end
$var reg 1 z RegWr_M $end
$var reg 32 A" ext_result_M [31:0] $end
$var reg 32 B" result_M [31:0] $end
$var reg 32 C" rt_data_M [31:0] $end
$var reg 26 D" target_M [25:0] $end
$var reg 1 U zero_M $end
$upscope $end
$scope module Id_Ex $end
$var wire 1 . ALUSrc $end
$var wire 4 E" ALUctr [3:0] $end
$var wire 1 , ExtOp $end
$var wire 1 P ID_Ex_flush $end
$var wire 1 + MemWr $end
$var wire 1 * MemtoReg $end
$var wire 4 F" NPCop [3:0] $end
$var wire 1 ' RegWr $end
$var wire 5 G" RegWrDst [4:0] $end
$var wire 5 H" Rs [4:0] $end
$var wire 5 I" Rt [4:0] $end
$var wire 1 ! clk $end
$var wire 1 % if_branch $end
$var wire 16 J" imm16 [15:0] $end
$var wire 5 K" shamt [4:0] $end
$var wire 26 L" target [25:0] $end
$var wire 32 M" rt_data [31:0] $end
$var wire 32 N" rs_data [31:0] $end
$var wire 32 O" PC_D [31:0] $end
$var reg 1 6" ALUSrc_E $end
$var reg 4 P" ALUctr_E [3:0] $end
$var reg 1 4" ExtOp_E $end
$var reg 1 1" MemWr_E $end
$var reg 1 /" MemtoReg_E $end
$var reg 4 Q" NPCop_E [3:0] $end
$var reg 32 R" PC_E [31:0] $end
$var reg 5 S" RegWrDst_E [4:0] $end
$var reg 1 { RegWr_E $end
$var reg 5 T" Rs_E [4:0] $end
$var reg 5 U" Rt_E [4:0] $end
$var reg 1 m if_branch_E $end
$var reg 16 V" imm16_E [15:0] $end
$var reg 32 W" rs_data_E [31:0] $end
$var reg 32 X" rt_data_E [31:0] $end
$var reg 5 Y" shamt_E [4:0] $end
$var reg 26 Z" target_E [25:0] $end
$upscope $end
$scope module If_Id $end
$var wire 1 Q IF_ID_wr $end
$var wire 1 ! clk $end
$var wire 32 [" instruction_F [31:0] $end
$var wire 32 \" PC [31:0] $end
$var reg 32 ]" PC_D [31:0] $end
$var reg 32 ^" instruction_D [31:0] $end
$upscope $end
$scope module Mem_Wb $end
$var wire 1 ." MemtoReg_M $end
$var wire 4 _" NPCop_M [3:0] $end
$var wire 32 `" PC_M [31:0] $end
$var wire 5 a" RegWrDst_M [4:0] $end
$var wire 1 z RegWr_M $end
$var wire 1 ! clk $end
$var wire 32 b" ext_result_M [31:0] $end
$var wire 32 c" result_M [31:0] $end
$var wire 26 d" target_M [25:0] $end
$var wire 1 U zero_M $end
$var wire 32 e" dout [31:0] $end
$var reg 1 -" MemtoReg_W $end
$var reg 4 f" NPCop_W [3:0] $end
$var reg 32 g" PC_W [31:0] $end
$var reg 5 h" RegWrDst_W [4:0] $end
$var reg 1 y RegWr_W $end
$var reg 32 i" dout_W [31:0] $end
$var reg 32 j" ext_result_W [31:0] $end
$var reg 32 k" result_W [31:0] $end
$var reg 26 l" target_W [25:0] $end
$var reg 1 T zero_W $end
$upscope $end
$scope module SignExt $end
$var wire 1 4" ext_op $end
$var wire 1 m if_branch $end
$var wire 16 m" imm [15:0] $end
$var reg 32 n" ext_result [31:0] $end
$upscope $end
$scope module alu $end
$var wire 4 o" alu_ctrl [3:0] $end
$var wire 5 p" shamt [4:0] $end
$var wire 1 V zero $end
$var wire 32 q" b [31:0] $end
$var wire 32 r" a [31:0] $end
$var parameter 4 s" ADD $end
$var parameter 4 t" ADDI $end
$var parameter 4 u" ADDIU $end
$var parameter 4 v" AND $end
$var parameter 4 w" LUI $end
$var parameter 4 x" OR $end
$var parameter 4 y" ORI $end
$var parameter 4 z" SLL $end
$var parameter 4 {" SLT $end
$var parameter 4 |" SUB $end
$var parameter 4 }" XOR $end
$var reg 32 ~" result [31:0] $end
$upscope $end
$scope module aluMux $end
$var wire 1 6" ALUSrc $end
$var wire 32 !# Ext_result [31:0] $end
$var wire 32 "# Rt_data [31:0] $end
$var reg 32 ## Data [31:0] $end
$upscope $end
$scope module dm $end
$var wire 32 $# addr [31:0] $end
$var wire 1 ! clk $end
$var wire 32 %# din [31:0] $end
$var wire 32 &# dout [31:0] $end
$var wire 1 0" we $end
$upscope $end
$scope module hazard $end
$var wire 5 '# DstE [4:0] $end
$var wire 1 /" MemtoReg_E $end
$var wire 5 (# rs_D [4:0] $end
$var wire 5 )# rt_D [4:0] $end
$var reg 1 *# C_L_DE_Rs $end
$var reg 1 +# C_L_DE_Rt $end
$var reg 1 ,# ID_Ex_flush $end
$var reg 1 -# IF_ID_wr $end
$var reg 1 .# PCEnF $end
$upscope $end
$scope module im $end
$var wire 32 /# pc [31:0] $end
$var reg 32 0# dout [31:0] $end
$upscope $end
$scope module mux3 $end
$var wire 2 1# Forward_RSE [1:0] $end
$var wire 32 2# alu_out [31:0] $end
$var wire 32 3# rs_data_E [31:0] $end
$var wire 32 4# reg_wr_data [31:0] $end
$var reg 32 5# rs_data_final [31:0] $end
$upscope $end
$scope module mux4 $end
$var wire 2 6# Forward_RTE [1:0] $end
$var wire 32 7# alu_out [31:0] $end
$var wire 32 8# rt_data_E [31:0] $end
$var wire 32 9# reg_wr_data [31:0] $end
$var reg 32 :# rt_data_final [31:0] $end
$upscope $end
$scope module npc $end
$var wire 4 ;# NPCop [3:0] $end
$var wire 32 <# PC [31:0] $end
$var wire 32 =# PC_plus_4 [31:0] $end
$var wire 32 ># ext_result [31:0] $end
$var wire 26 ?# target [25:0] $end
$var wire 1 U zero $end
$var parameter 4 @# ADD4 $end
$var parameter 4 A# BEQ $end
$var parameter 4 B# BGEZ $end
$var parameter 4 C# BGTZ $end
$var parameter 4 D# BLEZ $end
$var parameter 4 E# BLTZ $end
$var parameter 4 F# BNE $end
$var parameter 4 G# JAL $end
$var parameter 4 H# JALR $end
$var parameter 4 I# JR $end
$var parameter 4 J# JUMP $end
$var reg 32 K# NPC [31:0] $end
$upscope $end
$scope module pc $end
$var wire 1 S PCEnF $end
$var wire 1 ! clk $end
$var wire 32 L# npc [31:0] $end
$var wire 1 " rst $end
$var reg 32 M# pc [31:0] $end
$upscope $end
$scope module regMux $end
$var wire 32 N# ALUoutput [31:0] $end
$var wire 32 O# MEMouput [31:0] $end
$var wire 1 -" MemtoReg $end
$var reg 32 P# Data [31:0] $end
$upscope $end
$scope module regfile $end
$var wire 5 Q# RegWrDst_W [4:0] $end
$var wire 1 ! clk $end
$var wire 5 R# rs [4:0] $end
$var wire 5 S# rt [4:0] $end
$var wire 32 T# wd [31:0] $end
$var wire 1 y wr $end
$var wire 32 U# rt_data [31:0] $end
$var wire 32 V# rs_data [31:0] $end
$var integer 32 W# i [31:0] $end
$upscope $end
$upscope $end
$upscope $end
$upscope $end
$enddefinitions $end
$comment Show the parameter values. $end
$dumpall
b0 J#
b1000 I#
b1000 H#
b1 G#
b11 F#
b111 E#
b110 D#
b101 C#
b100 B#
b10 A#
b1111 @#
b11 }"
b110 |"
b1001 {"
b1000 z"
b100 y"
b1 x"
b1111 w"
b0 v"
b101 u"
b111 t"
b10 s"
b11 F
b110 E
b1001 D
b1000 C
b100 B
b1 A
b1111 @
b0 ?
b1000 >
b1000 =
b1 <
b11 ;
b111 :
b110 9
b101 8
b100 7
b10 6
b0 5
b101 4
b111 3
b1111 2
b10 1
$end
#0
$dumpvars
b100000 W#
bx V#
bx U#
bx T#
bx S#
bx R#
bx Q#
bx P#
bx O#
bx N#
b11000000000000 M#
b11000000000100 L#
b11000000000100 K#
bx ?#
bx >#
b11000000000100 =#
bx <#
bx ;#
bx :#
bx 9#
bx 8#
bx 7#
bx 6#
bx 5#
bx 4#
bx 3#
bx 2#
bx 1#
b100100000100010000000000000010 0#
b11000000000000 /#
1.#
1-#
0,#
x+#
x*#
bx )#
bx (#
bx '#
bx &#
bx %#
bx $#
bx ##
bx "#
bx !#
bx ~"
bx r"
bx q"
bx p"
bx o"
bx n"
bx m"
bx l"
bx k"
bx j"
bx i"
bx h"
bx g"
bx f"
bx e"
bx d"
bx c"
bx b"
bx a"
bx `"
bx _"
bx ^"
bx ]"
b11000000000000 \"
b100100000100010000000000000010 ["
bx Z"
bx Y"
bx X"
bx W"
bx V"
bx U"
bx T"
bx S"
bx R"
bx Q"
bx P"
bx O"
bx N"
bx M"
bx L"
bx K"
bx J"
bx I"
bx H"
bx G"
bx F"
bx E"
bx D"
bx C"
bx B"
bx A"
bx @"
bx ?"
bx >"
bx ="
bx <"
bx ;"
bx :"
bx 9"
bx 8"
bx 7"
x6"
bx 5"
x4"
bx 3"
bx 2"
x1"
x0"
x/"
x."
x-"
b11000000000100 ,"
bx +"
bx *"
bx )"
b11000000000000 ("
bx '"
bx &"
bx %"
bx $"
b11000000000100 #"
bx ""
bx !"
bx ~
bx }
bx |
x{
xz
xy
bx x
bx w
bx v
bx u
bx t
bx s
bx r
bx q
bx p
bx o
bx n
xm
bx l
bx k
bx j
b100100000100010000000000000010 i
bx h
bx g
bx f
bx e
bx d
bx c
bx b
bx a
bx `
bx _
bx ^
bx ]
bx \
bx [
bx Z
bx Y
bx X
bx W
xV
xU
xT
1S
bx R
1Q
0P
xO
xN
xM
xL
0K
0J
bx I
bx H
bx G
bx 0
bx /
x.
bx -
x,
x+
x*
bx )
x(
x'
bx &
x%
bx $
b0 #
1"
0!
$end
#10
0"
#20
b10001 !"
b10001 G"
b0 a
b0 M"
b0 U#
xP
x,#
xQ
x-#
xS
x.#
b0 d
b0 N"
b0 V#
0%
b101 -
b101 G
b101 I
b101 E"
1,
b1111 )
b1111 H
b1111 R
b1111 F"
0+
1'
0*
1.
1(
b100010000000000000010 [
b100010000000000000010 L"
b10 l
b10 J"
b0 ]
b0 K"
b0 ""
b10001 v
b10001 I"
b10001 )#
b10001 S#
b0 x
b0 H"
b0 (#
b0 R#
b10 &
b10 0
b10 n
b1001 $
b1001 /
b1001 h
b11000000000100 '"
b11000000000100 O"
b11000000000100 ]"
b100100000100010000000000000010 j
b100100000100010000000000000010 ^"
b11000000001000 ,"
b11000000001000 K#
b11000000001000 L#
b100100000100100000000000000001 i
b100100000100100000000000000001 ["
b100100000100100000000000000001 0#
b11000000001000 #"
b11000000001000 =#
b11000000000100 ("
b11000000000100 \"
b11000000000100 /#
b11000000000100 M#
1!
b1 #
#40
0!
b10 #
#60
0V
b10 g
b10 9"
b10 ~"
b0 b
b0 r"
b0 5#
b0 3"
b0 1#
0N
0L
b10 t
b10 q"
b10 ##
b10 q
b10 :"
b10 n"
b10 !#
0P
0,#
1Q
1-#
1S
1.#
0+#
0*#
0m
b0 `
b0 8"
b0 X"
b0 8#
b0 c
b0 W"
b0 3#
b11000000000100 &"
b11000000000100 <"
b11000000000100 R"
b100010000000000000010 Z
b100010000000000000010 7"
b100010000000000000010 Z"
b10 k
b10 V"
b10 m"
b0 \
b0 Y"
b0 p"
b10001 ~
b10001 ;"
b10001 S"
b10001 '#
b10001 u
b10001 U"
b0 w
b0 T"
b1111 +"
b1111 ="
b1111 Q"
b101 5"
b101 P"
b101 o"
14"
01"
1{
0/"
16"
1!
b11 #
#80
0!
b100 #
#100
b10 ^
b10 "#
b10 :#
b10010 !"
b10010 G"
b10 2"
b10 6#
b100100000000000000001 [
b100100000000000000001 L"
b1 l
b1 J"
b10010 v
b10010 I"
b10010 )#
b10010 S#
b1 &
b1 0
b1 n
1M
b11000000001000 '"
b11000000001000 O"
b11000000001000 ]"
b100100000100100000000000000001 j
b100100000100100000000000000001 ^"
b100010000000000000010 Y
b100010000000000000010 D"
b100010000000000000010 d"
b1 s
b1 e"
b1 &#
b10 f
b10 B"
b10 c"
b10 $#
b10 2#
b10 7#
0."
b0 _
b0 C"
b0 %#
0U
00"
b1111 *"
b1111 >"
b1111 _"
1z
b11000000000100 %"
b11000000000100 ?"
b11000000000100 `"
b10001 }
b10001 @"
b10001 a"
b10 p
b10 A"
b10 b"
b11000000001100 ,"
b11000000001100 K#
b11000000001100 L#
b100000000100010000000000000001 i
b100000000100010000000000000001 ["
b100000000100010000000000000001 0#
b11000000001100 #"
b11000000001100 =#
b11000000001000 ("
b11000000001000 \"
b11000000001000 /#
b11000000001000 M#
1!
b101 #
#120
0!
b110 #
#140
b0 ^
b0 "#
b0 :#
b1 g
b1 9"
b1 ~"
b0 2"
b0 6#
b1 t
b1 q"
b1 ##
0M
b10001 !"
b10001 G"
b111 -
b111 G
b111 I
b111 E"
0,
b10 W
b10 4#
b10 9#
b10 P#
b10 T#
0O
b1 q
b1 :"
b1 n"
b1 !#
b100010000000000000001 [
b100010000000000000001 L"
b10001 v
b10001 I"
b10001 )#
b10001 S#
b1000 $
b1000 /
b1000 h
b1 r
b1 i"
b1 O#
b10 e
b10 k"
b10 N#
0-"
b100010000000000000010 X
b100010000000000000010 l"
b100010000000000000010 ?#
0T
b1111 )"
b1111 f"
b1111 ;#
1y
b11000000000100 $"
b11000000000100 g"
b11000000000100 <#
b10001 |
b10001 h"
b10001 Q#
b10 o
b10 j"
b10 >#
b11000000001000 &"
b11000000001000 <"
b11000000001000 R"
b100100000000000000001 Z
b100100000000000000001 7"
b100100000000000000001 Z"
b1 k
b1 V"
b1 m"
b10010 ~
b10010 ;"
b10010 S"
b10010 '#
b10010 u
b10010 U"
b11000000001100 '"
b11000000001100 O"
b11000000001100 ]"
b100000000100010000000000000001 j
b100000000100010000000000000001 ^"
b11000000010000 ,"
b11000000010000 K#
b11000000010000 L#
b100000000100100000000000000010 i
b100000000100100000000000000010 ["
b100000000100100000000000000010 0#
b11000000010000 #"
b11000000010000 =#
b11000000001100 ("
b11000000001100 \"
b11000000001100 /#
b11000000001100 M#
1!
b111 #
#160
0!
b1000 #
#180
b10 ^
b10 "#
b10 :#
b1 2"
b1 6#
b10010 !"
b10010 G"
1O
b100100000000000000010 [
b100100000000000000010 L"
b10 l
b10 J"
b10010 v
b10010 I"
b10010 )#
b10010 S#
b10 &
b10 0
b10 n
b11000000010000 '"
b11000000010000 O"
b11000000010000 ]"
b100000000100100000000000000010 j
b100000000100100000000000000010 ^"
b11000000001100 &"
b11000000001100 <"
b11000000001100 R"
b100010000000000000001 Z
b100010000000000000001 7"
b100010000000000000001 Z"
b10001 ~
b10001 ;"
b10001 S"
b10001 '#
b10001 u
b10001 U"
b111 5"
b111 P"
b111 o"
04"
b100100000000000000001 Y
b100100000000000000001 D"
b100100000000000000001 d"
b11 s
b11 e"
b11 &#
b1 f
b1 B"
b1 c"
b1 $#
b1 2#
b1 7#
b11000000001000 %"
b11000000001000 ?"
b11000000001000 `"
b10010 }
b10010 @"
b10010 a"
b1 p
b1 A"
b1 b"
b0 a
b0 M"
b0 U#
b11000000010100 ,"
b11000000010100 K#
b11000000010100 L#
b10001100101001100000100000 i
b10001100101001100000100000 ["
b10001100101001100000100000 0#
b11000000010100 #"
b11000000010100 =#
b11000000010000 ("
b11000000010000 \"
b11000000010000 /#
b11000000010000 M#
1!
b1001 #
#200
0!
b1010 #
#220
b10 g
b10 9"
b10 ~"
b10011 !"
b10011 G"
b1 ^
b1 "#
b1 :#
b10 t
b10 q"
b10 ##
b10 d
b10 N"
b10 V#
b10 -
b10 G
b10 I
b10 E"
0.
0(
b1 W
b1 4#
b1 9#
b1 P#
b1 T#
b10 q
b10 :"
b10 n"
b10 !#
b10001100101001100000100000 [
b10001100101001100000100000 L"
b1001100000100000 l
b1001100000100000 J"
b10011 ""
b10001 x
b10001 H"
b10001 (#
b10001 R#
b100000 &
b100000 0
b100000 n
b0 $
b0 /
b0 h
b11 r
b11 i"
b11 O#
b1 e
b1 k"
b1 N#
b100100000000000000001 X
b100100000000000000001 l"
b100100000000000000001 ?#
b11000000001000 $"
b11000000001000 g"
b11000000001000 <#
b10010 |
b10010 h"
b10010 Q#
b1 o
b1 j"
b1 >#
b100010000000000000001 Y
b100010000000000000001 D"
b100010000000000000001 d"
b11000000001100 %"
b11000000001100 ?"
b11000000001100 `"
b10001 }
b10001 @"
b10001 a"
b11000000010000 &"
b11000000010000 <"
b11000000010000 R"
b100100000000000000010 Z
b100100000000000000010 7"
b100100000000000000010 Z"
b10 k
b10 V"
b10 m"
b10010 ~
b10010 ;"
b10010 S"
b10010 '#
b10010 u
b10010 U"
b11000000010100 '"
b11000000010100 O"
b11000000010100 ]"
b10001100101001100000100000 j
b10001100101001100000100000 ^"
b11000000011000 ,"
b11000000011000 K#
b11000000011000 L#
b10010100011001100000100010 i
b10010100011001100000100010 ["
b10010100011001100000100010 0#
b11000000011000 #"
b11000000011000 =#
b11000000010100 ("
b11000000010100 \"
b11000000010100 /#
b11000000010100 M#
1!
b1011 #
#240
0!
b1100 #
#260
b1 3"
b1 1#
b10 ^
b10 "#
b10 :#
b10 2"
b10 6#
b1 d
b1 N"
b1 V#
b110 -
b110 G
b110 I
b110 E"
1N
1M
0O
b10010100011001100000100010 [
b10010100011001100000100010 L"
b1001100000100010 l
b1001100000100010 J"
b10001 v
b10001 I"
b10001 )#
b10001 S#
b10010 x
b10010 H"
b10010 (#
b10010 R#
b100010 &
b100010 0
b100010 n
b1001100000100000 q
b1001100000100000 :"
b1001100000100000 n"
b1001100000100000 !#
b11 g
b11 9"
b11 ~"
b10 t
b10 q"
b10 ##
b1 b
b1 r"
b1 5#
b11000000011000 '"
b11000000011000 O"
b11000000011000 ]"
b10010100011001100000100010 j
b10010100011001100000100010 ^"
b10 c
b10 W"
b10 3#
b11000000010100 &"
b11000000010100 <"
b11000000010100 R"
b10001100101001100000100000 Z
b10001100101001100000100000 7"
b10001100101001100000100000 Z"
b1001100000100000 k
b1001100000100000 V"
b1001100000100000 m"
b10011 ~
b10011 ;"
b10011 S"
b10011 '#
b10001 w
b10001 T"
b10 5"
b10 P"
b10 o"
06"
b100100000000000000010 Y
b100100000000000000010 D"
b100100000000000000010 d"
b1 s
b1 e"
b1 &#
b10 f
b10 B"
b10 c"
b10 $#
b10 2#
b10 7#
b11000000010000 %"
b11000000010000 ?"
b11000000010000 `"
b10010 }
b10010 @"
b10010 a"
b10 p
b10 A"
b10 b"
b100010000000000000001 X
b100010000000000000001 l"
b100010000000000000001 ?#
b11000000001100 $"
b11000000001100 g"
b11000000001100 <#
b10001 |
b10001 h"
b10001 Q#
b10 a
b10 M"
b10 U#
b11000000011100 ,"
b11000000011100 K#
b11000000011100 L#
b10001100101001100000100100 i
b10001100101001100000100100 ["
b10001100101001100000100100 0#
b11000000011100 #"
b11000000011100 =#
b11000000011000 ("
b11000000011000 \"
b11000000011000 /#
b11000000011000 M#
1!
b1101 #
#280
0!
b1110 #
#300
1V
b0 2"
b0 6#
b10 b
b10 r"
b10 5#
b10 t
b10 q"
b10 ##
0M
b0 -
b0 G
b0 I
b0 E"
b10 W
b10 4#
b10 9#
b10 P#
b10 T#
b10 ^
b10 "#
b10 :#
b1001100000100010 q
b1001100000100010 :"
b1001100000100010 n"
b1001100000100010 !#
b0 g
b0 9"
b0 ~"
b10001100101001100000100100 [
b10001100101001100000100100 L"
b1001100000100100 l
b1001100000100100 J"
b10010 v
b10010 I"
b10010 )#
b10010 S#
b10001 x
b10001 H"
b10001 (#
b10001 R#
b100100 &
b100100 0
b100100 n
b1 r
b1 i"
b1 O#
b10 e
b10 k"
b10 N#
b100100000000000000010 X
b100100000000000000010 l"
b100100000000000000010 ?#
b11000000010000 $"
b11000000010000 g"
b11000000010000 <#
b10010 |
b10010 h"
b10010 Q#
b10 o
b10 j"
b10 >#
b10001100101001100000100000 Y
b10001100101001100000100000 D"
b10001100101001100000100000 d"
b110 s
b110 e"
b110 &#
b11 f
b11 B"
b11 c"
b11 $#
b11 2#
b11 7#
b11000000010100 %"
b11000000010100 ?"
b11000000010100 `"
b10011 }
b10011 @"
b10011 a"
b1001100000100000 p
b1001100000100000 A"
b1001100000100000 b"
b10 `
b10 8"
b10 X"
b10 8#
b1 c
b1 W"
b1 3#
b11000000011000 &"
b11000000011000 <"
b11000000011000 R"
b10010100011001100000100010 Z
b10010100011001100000100010 7"
b10010100011001100000100010 Z"
b1001100000100010 k
b1001100000100010 V"
b1001100000100010 m"
b10001 u
b10001 U"
b10010 w
b10010 T"
b110 5"
b110 P"
b110 o"
b11000000011100 '"
b11000000011100 O"
b11000000011100 ]"
b10001100101001100000100100 j
b10001100101001100000100100 ^"
b1 a
b1 M"
b1 U#
b11000000100000 ,"
b11000000100000 K#
b11000000100000 L#
b10001100101001100000100101 i
b10001100101001100000100101 ["
b10001100101001100000100101 0#
b11000000100000 #"
b11000000100000 =#
b11000000011100 ("
b11000000011100 \"
b11000000011100 /#
b11000000011100 M#
1!
b1111 #
#320
0!
b10000 #
#340
b0 3"
b0 1#
b1 -
b1 G
b1 I
b1 E"
b1 t
b1 q"
b1 ##
0N
b10001100101001100000100101 [
b10001100101001100000100101 L"
b1001100000100101 l
b1001100000100101 J"
b100101 &
b100101 0
b100101 n
b1001100000100100 q
b1001100000100100 :"
b1001100000100100 n"
b1001100000100100 !#
0V
b1 g
b1 9"
b1 ~"
b1 b
b1 r"
b1 5#
b1 ^
b1 "#
b1 :#
b11 W
b11 4#
b11 9#
b11 P#
b11 T#
b11000000100000 '"
b11000000100000 O"
b11000000100000 ]"
b10001100101001100000100101 j
b10001100101001100000100101 ^"
b1 `
b1 8"
b1 X"
b1 8#
b11000000011100 &"
b11000000011100 <"
b11000000011100 R"
b10001100101001100000100100 Z
b10001100101001100000100100 7"
b10001100101001100000100100 Z"
b1001100000100100 k
b1001100000100100 V"
b1001100000100100 m"
b10010 u
b10010 U"
b10001 w
b10001 T"
b0 5"
b0 P"
b0 o"
b10010100011001100000100010 Y
b10010100011001100000100010 D"
b10010100011001100000100010 d"
b100 s
b100 e"
b100 &#
b0 f
b0 B"
b0 c"
b0 $#
b0 2#
b0 7#
b10 _
b10 C"
b10 %#
1U
b11000000011000 %"
b11000000011000 ?"
b11000000011000 `"
b1001100000100010 p
b1001100000100010 A"
b1001100000100010 b"
b110 r
b110 i"
b110 O#
b11 e
b11 k"
b11 N#
b10001100101001100000100000 X
b10001100101001100000100000 l"
b10001100101001100000100000 ?#
b11000000010100 $"
b11000000010100 g"
b11000000010100 <#
b10011 |
b10011 h"
b10011 Q#
b1001100000100000 o
b1001100000100000 j"
b1001100000100000 >#
b10 a
b10 M"
b10 U#
b11000000100100 ,"
b11000000100100 K#
b11000000100100 L#
b110110001100110000000000000101 i
b110110001100110000000000000101 ["
b110110001100110000000000000101 0#
b11000000100100 #"
b11000000100100 =#
b11000000100000 ("
b11000000100000 \"
b11000000100000 /#
b11000000100000 M#
1!
b10001 #
#360
0!
b10010 #
